ACCOUNT NUMBER;ACCOUNT NAME;PRODUCT SUB-TYPE;ACCOUNT CURRENCY;BANK-ID;BANK-NAME;TRANSACTION DESCRIPTION;TRANSACTION TYPE;DEBIT/CREDIT INDICATOR;AMOUNT;CUSTOMER REFERENCE;BANK REFERENCE;LEDGER DATE;NARRATIVE;
09072003438759;3008780000001 OTHER VT;CURRENT & DEPOS;GBP;SAN;SANTANDER;928 - TRANSCASH;928;C;100.00;9826920830077222103;0171117BH3500000024461;16/11/2017;TC 9826920830077222103;
09072003438759;3008780000001 OTHER VT;CURRENT & DEPOS;GBP;SAN;SANTANDER;928 - TRANSCASH;928;C;100.00;9826920830009117041;0171117BH3500000024471;16/11/2017;TC 9826920830009117041;
09072003438759;3008780000001 OTHER VT;CURRENT & DEPOS;GBP;SAN;SANTANDER;928 - TRANSCASH;928;C;7.00;9826920830021149089;0171117BH3500000024481;16/11/2017;TC 9826920830021149089;
09072003438759;3008780000001 OTHER VT;CURRENT & DEPOS;GBP;SAN;SANTANDER;928 - TRANSCASH;928;C;38.00;9826920830029601081;0171117BH3500000024491;16/11/2017;TC 9826920830029601081;
09072003438759;3008780000001 OTHER VT;CURRENT & DEPOS;GBP;SAN;SANTANDER;928 - TRANSCASH;928;C;177.00;9826920830053806044;0171117BH3500000024501;16/11/2017;TC 9826920830053806044;
09072003438759;3008780000001 OTHER VT;CURRENT & DEPOS;GBP;SAN;SANTANDER;928 - TRANSCASH;928;C;56.00;9826920830099247054;0171117BH3500000024511;16/11/2017;TC 9826920830099247054;
09072003438759;3008780000001 OTHER VT;CURRENT & DEPOS;GBP;SAN;SANTANDER;928 - TRANSCASH;928;C;17.00;9826920830102077035;0171117BH3500000024521;16/11/2017;TC 9826920830102077035;
09072003438759;3008780000001 OTHER VT;CURRENT & DEPOS;GBP;SAN;SANTANDER;928 - TRANSCASH;928;C;20.00;9826920830112455056;0171117BH3500000024531;16/11/2017;TC 9826920830112455056;
09072003438759;3008780000001 OTHER VT;CURRENT & DEPOS;GBP;SAN;SANTANDER;928 - TRANSCASH;928;C;100.00;9826920830130624071;0171117BH3500000024541;16/11/2017;TC 9826920830130624071;
09072003438759;3008780000001 OTHER VT;CURRENT & DEPOS;GBP;SAN;SANTANDER;928 - TRANSCASH;928;C;138.00;9826920830146064056;0171117BH3500000024551;16/11/2017;TC 9826920830146064056;
09072005436958;3008780000001 OTHER VT;CURRENT & DEPOS;GBP;SAN;SANTANDER;928 - TRANSCASH;928;C;411.60;9826923300001291258;0171117BH3500000024561;16/11/2017;TC 9826923300001291258;
09072005436958;3008780000001 OTHER VT;CURRENT & DEPOS;GBP;SAN;SANTANDER;928 - TRANSCASH;928;C;5.00;9826923300001352019;0171117BH3500000024571;16/11/2017;TC 9826923300001352019;
09072005436958;3008780000001 OTHER VT;CURRENT & DEPOS;GBP;SAN;SANTANDER;928 - TRANSCASH;928;C;120.00;9826923300001560108;0171117BH3500000024581;16/11/2017;TC 9826923300001560108;
09072005436958;3008780000001 OTHER VT;CURRENT & DEPOS;GBP;SAN;SANTANDER;928 - TRANSCASH;928;C;526.00;9826923300003362131;0171117BH3500000024591;16/11/2017;TC 9826923300003362131;
09072005436958;3008780000001 OTHER VT;CURRENT & DEPOS;GBP;SAN;SANTANDER;928 - TRANSCASH;928;C;15.00;9826923300003894034;0171117BH3500000024601;16/11/2017;TC 9826923300003894034;
09072005436958;3008780000001 OTHER VT;CURRENT & DEPOS;GBP;SAN;SANTANDER;928 - TRANSCASH;928;C;75.00;9826923300005028227;0171117BH3500000024611;16/11/2017;TC 9826923300005028227;
09072005436958;3008780000001 OTHER VT;CURRENT & DEPOS;GBP;SAN;SANTANDER;928 - TRANSCASH;928;C;12.20;9826923300005054033;0171117BH3500000024621;16/11/2017;TC 9826923300005054033;
09072005436958;3008780000001 OTHER VT;CURRENT & DEPOS;GBP;SAN;SANTANDER;928 - TRANSCASH;928;C;400.00;9826923300005169237;0171117BH3500000024631;16/11/2017;TC 9826923300005169237;
09072005436958;3008780000001 OTHER VT;CURRENT & DEPOS;GBP;SAN;SANTANDER;928 - TRANSCASH;928;C;49.28;9826923300005648222;0171117BH3500000024641;16/11/2017;TC 9826923300005648222;
09072005436958;3008780000001 OTHER VT;CURRENT & DEPOS;GBP;SAN;SANTANDER;928 - TRANSCASH;928;C;2.31;9826923300005889230;0171117BH3500000024651;16/11/2017;TC 9826923300005889230;
09072005436958;3008780000001 OTHER VT;CURRENT & DEPOS;GBP;SAN;SANTANDER;928 - TRANSCASH;928;C;80.00;9826923300006125188;0171117BH3500000024661;16/11/2017;TC 9826923300006125188;
09072005436958;3008780000001 OTHER VT;CURRENT & DEPOS;GBP;SAN;SANTANDER;928 - TRANSCASH;928;C;4.89;9826923300006263146;0171117BH3500000024671;16/11/2017;TC 9826923300006263146;
09072005436958;3008780000001 OTHER VT;CURRENT & DEPOS;GBP;SAN;SANTANDER;928 - TRANSCASH;928;C;2.49;9826923300006511254;0171117BH3500000024681;16/11/2017;TC 9826923300006511254;
09072005436958;3008780000001 OTHER VT;CURRENT & DEPOS;GBP;SAN;SANTANDER;928 - TRANSCASH;928;C;49.28;9826923300006589235;0171117BH3500000024691;16/11/2017;TC 9826923300006589235;
09072005436958;3008780000001 OTHER VT;CURRENT & DEPOS;GBP;SAN;SANTANDER;928 - TRANSCASH;928;C;90.00;9826923300007072017;0171117BH3500000024701;16/11/2017;TC 9826923300007072017;
09072005436958;3008780000001 OTHER VT;CURRENT & DEPOS;GBP;SAN;SANTANDER;928 - TRANSCASH;928;C;115.00;9826923300008255041;0171117BH3500000024711;16/11/2017;TC 9826923300008255041;
09072005436958;3008780000001 OTHER VT;CURRENT & DEPOS;GBP;SAN;SANTANDER;928 - TRANSCASH;928;C;9.76;9826923300008443142;0171117BH3500000024721;16/11/2017;TC 9826923300008443142;
09072005436958;3008780000001 OTHER VT;CURRENT & DEPOS;GBP;SAN;SANTANDER;928 - TRANSCASH;928;C;40.00;9826923300009540102;0171117BH3500000024731;16/11/2017;TC 9826923300009540102;
09072005436958;3008780000001 OTHER VT;CURRENT & DEPOS;GBP;SAN;SANTANDER;928 - TRANSCASH;928;C;10.00;9826923300012074032;0171117BH3500000024741;16/11/2017;TC 9826923300012074032;
09072005436958;3008780000001 OTHER VT;CURRENT & DEPOS;GBP;SAN;SANTANDER;928 - TRANSCASH;928;C;7.00;9826923300012195043;0171117BH3500000024751;16/11/2017;TC 9826923300012195043;
09072005436958;3008780000001 OTHER VT;CURRENT & DEPOS;GBP;SAN;SANTANDER;928 - TRANSCASH;928;C;50.55;9826923300012244163;0171117BH3500000024761;16/11/2017;TC 9826923300012244163;
09072005436958;3008780000001 OTHER VT;CURRENT & DEPOS;GBP;SAN;SANTANDER;928 - TRANSCASH;928;C;40.00;9826923300012829237;0171117BH3500000024771;16/11/2017;TC 9826923300012829237;
09072005436958;3008780000001 OTHER VT;CURRENT & DEPOS;GBP;SAN;SANTANDER;928 - TRANSCASH;928;C;20.00;9826923300013078073;0171117BH3500000024781;16/11/2017;TC 9826923300013078073;
09072005436958;3008780000001 OTHER VT;CURRENT & DEPOS;GBP;SAN;SANTANDER;928 - TRANSCASH;928;C;102.00;9826923300013648222;0171117BH3500000024791;16/11/2017;TC 9826923300013648222;
09072005436958;3008780000001 OTHER VT;CURRENT & DEPOS;GBP;SAN;SANTANDER;928 - TRANSCASH;928;C;507.00;9826923300013746208;0171117BH3500000024801;16/11/2017;TC 9826923300013746208;
09072005436958;3008780000001 OTHER VT;CURRENT & DEPOS;GBP;SAN;SANTANDER;928 - TRANSCASH;928;C;50.00;9826923300014949231;0171117BH3500000024811;16/11/2017;TC 9826923300014949231;
09072005436958;3008780000001 OTHER VT;CURRENT & DEPOS;GBP;SAN;SANTANDER;928 - TRANSCASH;928;C;96.00;9826923300015109231;0171117BH3500000024821;16/11/2017;TC 9826923300015109231;
09072005436958;3008780000001 OTHER VT;CURRENT & DEPOS;GBP;SAN;SANTANDER;928 - TRANSCASH;928;C;4.40;9826923300015360107;0171117BH3500000024831;16/11/2017;TC 9826923300015360107;
09072005436958;3008780000001 OTHER VT;CURRENT & DEPOS;GBP;SAN;SANTANDER;928 - TRANSCASH;928;C;470.23;9826923300015495044;0171117BH3500000024841;16/11/2017;TC 9826923300015495044;
09072005436958;3008780000001 OTHER VT;CURRENT & DEPOS;GBP;SAN;SANTANDER;928 - TRANSCASH;928;C;87.54;9826923300015553024;0171117BH3500000024851;16/11/2017;TC 9826923300015553024;
09072005436958;3008780000001 OTHER VT;CURRENT & DEPOS;GBP;SAN;SANTANDER;928 - TRANSCASH;928;C;9.46;9826923300016049238;0171117BH3500000024861;16/11/2017;TC 9826923300016049238;
09072005436958;3008780000001 OTHER VT;CURRENT & DEPOS;GBP;SAN;SANTANDER;928 - TRANSCASH;928;C;50.00;9826923300016213024;0171117BH3500000024871;16/11/2017;TC 9826923300016213024;
09072005436958;3008780000001 OTHER VT;CURRENT & DEPOS;GBP;SAN;SANTANDER;928 - TRANSCASH;928;C;125.00;9826923300016418078;0171117BH3500000024881;16/11/2017;TC 9826923300016418078;
09072005436958;3008780000001 OTHER VT;CURRENT & DEPOS;GBP;SAN;SANTANDER;928 - TRANSCASH;928;C;400.00;9826923300017082139;0171117BH3500000024891;16/11/2017;TC 9826923300017082139;
09072005436958;3008780000001 OTHER VT;CURRENT & DEPOS;GBP;SAN;SANTANDER;928 - TRANSCASH;928;C;30.00;9826923300017128221;0171117BH3500000024901;16/11/2017;TC 9826923300017128221;
09072005436958;3008780000001 OTHER VT;CURRENT & DEPOS;GBP;SAN;SANTANDER;928 - TRANSCASH;928;C;300.00;9826923390004436067;0171117BH3500000024911;16/11/2017;TC 9826923390004436067;
09072005436958;3008780000001 OTHER VT;CURRENT & DEPOS;GBP;SAN;SANTANDER;961 - BALANCE TRANSFER - DEBIT;961;D;-6968.74;SWEEPING;0171116BH3620000000961;16/11/2017;TRANSFER TO TANDRIDGE D C. REF: 0015 0462 696 0111371;
