ACCOUNT NUMBER;ACCOUNT NAME;PRODUCT SUB-TYPE;ACCOUNT CURRENCY;BANK-ID;BANK-NAME;TRANSACTION DESCRIPTION;TRANSACTION TYPE;DEBIT/CREDIT INDICATOR;AMOUNT;CUSTOMER REFERENCE;BANK REFERENCE;LEDGER DATE;NARRATIVE;
09072003438759;3008780000001 OTHER VT;CURRENT & DEPOS;GBP;SAN;SANTANDER;928 - TRANSCASH;928;C;218.00;9826920830002271035;0171202BH2920000047910;01/12/2017;TC 9826920830002271035;
09072003438759;3008780000001 OTHER VT;CURRENT & DEPOS;GBP;SAN;SANTANDER;928 - TRANSCASH;928;C;298.00;9826920830006473017;0171202BH2920000047920;01/12/2017;TC 9826920830006473017;
09072003438759;3008780000001 OTHER VT;CURRENT & DEPOS;GBP;SAN;SANTANDER;928 - TRANSCASH;928;C;133.00;9826920830013175068;0171202BH2920000047930;01/12/2017;TC 9826920830013175068;
09072003438759;3008780000001 OTHER VT;CURRENT & DEPOS;GBP;SAN;SANTANDER;928 - TRANSCASH;928;C;178.00;9826920830016802015;0171202BH2920000047940;01/12/2017;TC 9826920830016802015;
09072003438759;3008780000001 OTHER VT;CURRENT & DEPOS;GBP;SAN;SANTANDER;928 - TRANSCASH;928;C;219.00;9826920830018607008;0171202BH2920000047950;01/12/2017;TC 9826920830018607008;
09072003438759;3008780000001 OTHER VT;CURRENT & DEPOS;GBP;SAN;SANTANDER;928 - TRANSCASH;928;C;179.00;9826920830021132069;0171202BH2920000047960;01/12/2017;TC 9826920830021132069;
09072003438759;3008780000001 OTHER VT;CURRENT & DEPOS;GBP;SAN;SANTANDER;928 - TRANSCASH;928;C;178.00;9826920830025341054;0171202BH2920000047970;01/12/2017;TC 9826920830025341054;
09072003438759;3008780000001 OTHER VT;CURRENT & DEPOS;GBP;SAN;SANTANDER;928 - TRANSCASH;928;C;180.00;9826920830026387106;0171202BH2920000047980;01/12/2017;TC 9826920830026387106;
09072003438759;3008780000001 OTHER VT;CURRENT & DEPOS;GBP;SAN;SANTANDER;928 - TRANSCASH;928;C;133.00;9826920830027207063;0171202BH2920000047990;01/12/2017;TC 9826920830027207063;
09072003438759;3008780000001 OTHER VT;CURRENT & DEPOS;GBP;SAN;SANTANDER;928 - TRANSCASH;928;C;177.00;9826920830031777010;0171202BH2920000048000;01/12/2017;TC 9826920830031777010;
09072003438759;3008780000001 OTHER VT;CURRENT & DEPOS;GBP;SAN;SANTANDER;928 - TRANSCASH;928;C;177.00;9826920830031960004;0171202BH2920000048010;01/12/2017;TC 9826920830031960004;
09072003438759;3008780000001 OTHER VT;CURRENT & DEPOS;GBP;SAN;SANTANDER;928 - TRANSCASH;928;C;177.00;9826920830032113009;0171202BH2920000048020;01/12/2017;TC 9826920830032113009;
09072003438759;3008780000001 OTHER VT;CURRENT & DEPOS;GBP;SAN;SANTANDER;928 - TRANSCASH;928;C;20.00;9826920830034007084;0171202BH2920000048030;01/12/2017;TC 9826920830034007084;
09072003438759;3008780000001 OTHER VT;CURRENT & DEPOS;GBP;SAN;SANTANDER;928 - TRANSCASH;928;C;219.00;9826920830035370051;0171202BH2920000048040;01/12/2017;TC 9826920830035370051;
09072003438759;3008780000001 OTHER VT;CURRENT & DEPOS;GBP;SAN;SANTANDER;928 - TRANSCASH;928;C;217.00;9826920830045415011;0171202BH2920000048050;01/12/2017;TC 9826920830045415011;
09072003438759;3008780000001 OTHER VT;CURRENT & DEPOS;GBP;SAN;SANTANDER;928 - TRANSCASH;928;C;178.00;9826920830048697086;0171202BH2920000048060;01/12/2017;TC 9826920830048697086;
09072003438759;3008780000001 OTHER VT;CURRENT & DEPOS;GBP;SAN;SANTANDER;928 - TRANSCASH;928;C;192.00;9826920830050475090;0171202BH2920000048070;01/12/2017;TC 9826920830050475090;
09072003438759;3008780000001 OTHER VT;CURRENT & DEPOS;GBP;SAN;SANTANDER;928 - TRANSCASH;928;C;178.00;9826920830053728032;0171202BH2920000048080;01/12/2017;TC 9826920830053728032;
09072003438759;3008780000001 OTHER VT;CURRENT & DEPOS;GBP;SAN;SANTANDER;928 - TRANSCASH;928;C;257.00;9826920830058873007;0171202BH2920000048090;01/12/2017;TC 9826920830058873007;
09072003438759;3008780000001 OTHER VT;CURRENT & DEPOS;GBP;SAN;SANTANDER;928 - TRANSCASH;928;C;64.00;9826920830060238074;0171202BH2920000048100;01/12/2017;TC 9826920830060238074;
09072003438759;3008780000001 OTHER VT;CURRENT & DEPOS;GBP;SAN;SANTANDER;928 - TRANSCASH;928;C;23.00;9826920830063096099;0171202BH2920000048110;01/12/2017;TC 9826920830063096099;
09072003438759;3008780000001 OTHER VT;CURRENT & DEPOS;GBP;SAN;SANTANDER;928 - TRANSCASH;928;C;178.00;9826920830074605003;0171202BH2920000048120;01/12/2017;TC 9826920830074605003;
09072003438759;3008780000001 OTHER VT;CURRENT & DEPOS;GBP;SAN;SANTANDER;928 - TRANSCASH;928;C;90.00;9826920830077711105;0171202BH2920000048130;01/12/2017;TC 9826920830077711105;
09072003438759;3008780000001 OTHER VT;CURRENT & DEPOS;GBP;SAN;SANTANDER;928 - TRANSCASH;928;C;178.00;9826920830078167109;0171202BH2920000048140;01/12/2017;TC 9826920830078167109;
09072003438759;3008780000001 OTHER VT;CURRENT & DEPOS;GBP;SAN;SANTANDER;928 - TRANSCASH;928;C;50.00;9826920830099918084;0171202BH2920000048150;01/12/2017;TC 9826920830099918084;
09072003438759;3008780000001 OTHER VT;CURRENT & DEPOS;GBP;SAN;SANTANDER;928 - TRANSCASH;928;C;31.00;9826920830101677090;0171202BH2920000048160;01/12/2017;TC 9826920830101677090;
09072003438759;3008780000001 OTHER VT;CURRENT & DEPOS;GBP;SAN;SANTANDER;928 - TRANSCASH;928;C;69.00;9826920830102234040;0171202BH2920000048170;01/12/2017;TC 9826920830102234040;
09072003438759;3008780000001 OTHER VT;CURRENT & DEPOS;GBP;SAN;SANTANDER;928 - TRANSCASH;928;C;113.00;9826920830104541061;0171202BH2920000048180;01/12/2017;TC 9826920830104541061;
09072003438759;3008780000001 OTHER VT;CURRENT & DEPOS;GBP;SAN;SANTANDER;928 - TRANSCASH;928;C;217.00;9826920830111465064;0171202BH2920000048190;01/12/2017;TC 9826920830111465064;
09072003438759;3008780000001 OTHER VT;CURRENT & DEPOS;GBP;SAN;SANTANDER;928 - TRANSCASH;928;C;140.00;9826920830116392040;0171202BH2920000048200;01/12/2017;TC 9826920830116392040;
09072003438759;3008780000001 OTHER VT;CURRENT & DEPOS;GBP;SAN;SANTANDER;928 - TRANSCASH;928;C;10.00;9826920830135213045;0171202BH2920000048210;01/12/2017;TC 9826920830135213045;
09072003438759;3008780000001 OTHER VT;CURRENT & DEPOS;GBP;SAN;SANTANDER;928 - TRANSCASH;928;C;103.00;9826920830140976073;0171202BH2920000048220;01/12/2017;TC 9826920830140976073;
09072003438759;3008780000001 OTHER VT;CURRENT & DEPOS;GBP;SAN;SANTANDER;928 - TRANSCASH;928;C;5.00;9826920830157070091;0171202BH2920000048230;01/12/2017;TC 9826920830157070091;
09072003438759;3008780000001 OTHER VT;CURRENT & DEPOS;GBP;SAN;SANTANDER;928 - TRANSCASH;928;C;27.00;9826920830164488047;0171202BH2920000048240;01/12/2017;TC 9826920830164488047;
09072005436958;3008780000001 OTHER VT;CURRENT & DEPOS;GBP;SAN;SANTANDER;928 - TRANSCASH;928;C;5.00;9826923300001352019;0171202BH2920000048250;01/12/2017;TC 9826923300001352019;
09072005436958;3008780000001 OTHER VT;CURRENT & DEPOS;GBP;SAN;SANTANDER;928 - TRANSCASH;928;C;150.00;9826923300001549234;0171202BH2920000048260;01/12/2017;TC 9826923300001549234;
09072005436958;3008780000001 OTHER VT;CURRENT & DEPOS;GBP;SAN;SANTANDER;928 - TRANSCASH;928;C;500.00;9826923300001602132;0171202BH2920000048270;01/12/2017;TC 9826923300001602132;
09072005436958;3008780000001 OTHER VT;CURRENT & DEPOS;GBP;SAN;SANTANDER;928 - TRANSCASH;928;C;50.00;9826923300002042130;0171202BH2920000048280;01/12/2017;TC 9826923300002042130;
09072005436958;3008780000001 OTHER VT;CURRENT & DEPOS;GBP;SAN;SANTANDER;928 - TRANSCASH;928;C;280.00;9826923300003096051;0171202BH2920000048290;01/12/2017;TC 9826923300003096051;
09072005436958;3008780000001 OTHER VT;CURRENT & DEPOS;GBP;SAN;SANTANDER;928 - TRANSCASH;928;C;215.00;9826923300003829238;0171202BH2920000048300;01/12/2017;TC 9826923300003829238;
09072005436958;3008780000001 OTHER VT;CURRENT & DEPOS;GBP;SAN;SANTANDER;928 - TRANSCASH;928;C;40.00;9826923300004158074;0171202BH2920000048310;01/12/2017;TC 9826923300004158074;
09072005436958;3008780000001 OTHER VT;CURRENT & DEPOS;GBP;SAN;SANTANDER;928 - TRANSCASH;928;C;130.00;9826923300004877061;0171202BH2920000048320;01/12/2017;TC 9826923300004877061;
09072005436958;3008780000001 OTHER VT;CURRENT & DEPOS;GBP;SAN;SANTANDER;928 - TRANSCASH;928;C;13.20;9826923300005336059;0171202BH2920000048330;01/12/2017;TC 9826923300005336059;
09072005436958;3008780000001 OTHER VT;CURRENT & DEPOS;GBP;SAN;SANTANDER;928 - TRANSCASH;928;C;172.00;9826923300005402133;0171202BH2920000048340;01/12/2017;TC 9826923300005402133;
09072005436958;3008780000001 OTHER VT;CURRENT & DEPOS;GBP;SAN;SANTANDER;928 - TRANSCASH;928;C;100.00;9826923300005977068;0171202BH2920000048350;01/12/2017;TC 9826923300005977068;
09072005436958;3008780000001 OTHER VT;CURRENT & DEPOS;GBP;SAN;SANTANDER;928 - TRANSCASH;928;C;78.57;9826923300005981110;0171202BH2920000048360;01/12/2017;TC 9826923300005981110;
09072005436958;3008780000001 OTHER VT;CURRENT & DEPOS;GBP;SAN;SANTANDER;928 - TRANSCASH;928;C;27.55;9826923300006047218;0171202BH2920000048370;01/12/2017;TC 9826923300006047218;
09072005436958;3008780000001 OTHER VT;CURRENT & DEPOS;GBP;SAN;SANTANDER;928 - TRANSCASH;928;C;127.94;9826923300006699083;0171202BH2920000048380;01/12/2017;TC 9826923300006699083;
09072005436958;3008780000001 OTHER VT;CURRENT & DEPOS;GBP;SAN;SANTANDER;928 - TRANSCASH;928;C;440.53;9826923300007407213;0171202BH2920000048390;01/12/2017;TC 9826923300007407213;
09072005436958;3008780000001 OTHER VT;CURRENT & DEPOS;GBP;SAN;SANTANDER;928 - TRANSCASH;928;C;115.00;9826923300007681114;0171202BH2920000048400;01/12/2017;TC 9826923300007681114;
09072005436958;3008780000001 OTHER VT;CURRENT & DEPOS;GBP;SAN;SANTANDER;928 - TRANSCASH;928;C;516.00;9826923300007916056;0171202BH2920000048410;01/12/2017;TC 9826923300007916056;
09072005436958;3008780000001 OTHER VT;CURRENT & DEPOS;GBP;SAN;SANTANDER;928 - TRANSCASH;928;C;30.00;9826923300008101112;0171202BH2920000048420;01/12/2017;TC 9826923300008101112;
09072005436958;3008780000001 OTHER VT;CURRENT & DEPOS;GBP;SAN;SANTANDER;928 - TRANSCASH;928;C;115.00;9826923300008255041;0171202BH2920000048430;01/12/2017;TC 9826923300008255041;
09072005436958;3008780000001 OTHER VT;CURRENT & DEPOS;GBP;SAN;SANTANDER;928 - TRANSCASH;928;C;100.00;9826923300008759083;0171202BH2920000048440;01/12/2017;TC 9826923300008759083;
09072005436958;3008780000001 OTHER VT;CURRENT & DEPOS;GBP;SAN;SANTANDER;928 - TRANSCASH;928;C;520.00;9826923300009448223;0171202BH2920000048450;01/12/2017;TC 9826923300009448223;
09072005436958;3008780000001 OTHER VT;CURRENT & DEPOS;GBP;SAN;SANTANDER;928 - TRANSCASH;928;C;185.17;9826923300012191257;0171202BH2920000048460;01/12/2017;TC 9826923300012191257;
09072005436958;3008780000001 OTHER VT;CURRENT & DEPOS;GBP;SAN;SANTANDER;928 - TRANSCASH;928;C;20.00;9826923300012960107;0171202BH2920000048470;01/12/2017;TC 9826923300012960107;
09072005436958;3008780000001 OTHER VT;CURRENT & DEPOS;GBP;SAN;SANTANDER;928 - TRANSCASH;928;C;310.00;9826923300013193021;0171202BH2920000048480;01/12/2017;TC 9826923300013193021;
09072005436958;3008780000001 OTHER VT;CURRENT & DEPOS;GBP;SAN;SANTANDER;928 - TRANSCASH;928;C;400.00;9826923300013242133;0171202BH2920000048490;01/12/2017;TC 9826923300013242133;
09072005436958;3008780000001 OTHER VT;CURRENT & DEPOS;GBP;SAN;SANTANDER;928 - TRANSCASH;928;C;102.00;9826923300013648222;0171202BH2920000048500;01/12/2017;TC 9826923300013648222;
09072005436958;3008780000001 OTHER VT;CURRENT & DEPOS;GBP;SAN;SANTANDER;928 - TRANSCASH;928;C;300.00;9826923300014079088;0171202BH2920000048510;01/12/2017;TC 9826923300014079088;
09072005436958;3008780000001 OTHER VT;CURRENT & DEPOS;GBP;SAN;SANTANDER;928 - TRANSCASH;928;C;12.00;9826923300014084161;0171202BH2920000048520;01/12/2017;TC 9826923300014084161;
09072005436958;3008780000001 OTHER VT;CURRENT & DEPOS;GBP;SAN;SANTANDER;928 - TRANSCASH;928;C;250.00;9826923300014187212;0171202BH2920000048530;01/12/2017;TC 9826923300014187212;
09072005436958;3008780000001 OTHER VT;CURRENT & DEPOS;GBP;SAN;SANTANDER;928 - TRANSCASH;928;C;10.00;9826923300014543141;0171202BH2920000048540;01/12/2017;TC 9826923300014543141;
09072005436958;3008780000001 OTHER VT;CURRENT & DEPOS;GBP;SAN;SANTANDER;928 - TRANSCASH;928;C;117.00;9826923300014730243;0171202BH2920000048550;01/12/2017;TC 9826923300014730243;
09072005436958;3008780000001 OTHER VT;CURRENT & DEPOS;GBP;SAN;SANTANDER;928 - TRANSCASH;928;C;96.00;9826923300015109231;0171202BH2920000048560;01/12/2017;TC 9826923300015109231;
09072005436958;3008780000001 OTHER VT;CURRENT & DEPOS;GBP;SAN;SANTANDER;928 - TRANSCASH;928;C;110.00;9826923300015350249;0171202BH2920000048570;01/12/2017;TC 9826923300015350249;
09072005436958;3008780000001 OTHER VT;CURRENT & DEPOS;GBP;SAN;SANTANDER;928 - TRANSCASH;928;C;390.00;9826923300015386201;0171202BH2920000048580;01/12/2017;TC 9826923300015386201;
09072005436958;3008780000001 OTHER VT;CURRENT & DEPOS;GBP;SAN;SANTANDER;928 - TRANSCASH;928;C;26.00;9826923300016097062;0171202BH2920000048590;01/12/2017;TC 9826923300016097062;
09072005436958;3008780000001 OTHER VT;CURRENT & DEPOS;GBP;SAN;SANTANDER;928 - TRANSCASH;928;C;20.00;9826923300016205186;0171202BH2920000048600;01/12/2017;TC 9826923300016205186;
09072005436958;3008780000001 OTHER VT;CURRENT & DEPOS;GBP;SAN;SANTANDER;928 - TRANSCASH;928;C;76.52;9826923300016271253;0171202BH2920000048610;01/12/2017;TC 9826923300016271253;
09072005436958;3008780000001 OTHER VT;CURRENT & DEPOS;GBP;SAN;SANTANDER;928 - TRANSCASH;928;C;5.00;9826923300016607217;0171202BH2920000048620;01/12/2017;TC 9826923300016607217;
09072005436958;3008780000001 OTHER VT;CURRENT & DEPOS;GBP;SAN;SANTANDER;928 - TRANSCASH;928;C;200.00;9826923300016677061;0171202BH2920000048630;01/12/2017;TC 9826923300016677061;
09072005436958;3008780000001 OTHER VT;CURRENT & DEPOS;GBP;SAN;SANTANDER;928 - TRANSCASH;928;C;100.00;9826923300016787217;0171202BH2920000048640;01/12/2017;TC 9826923300016787217;
09072005436958;3008780000001 OTHER VT;CURRENT & DEPOS;GBP;SAN;SANTANDER;928 - TRANSCASH;928;C;15.00;9826923300017154037;0171202BH2920000048650;01/12/2017;TC 9826923300017154037;
09072005436958;3008780000001 OTHER VT;CURRENT & DEPOS;GBP;SAN;SANTANDER;928 - TRANSCASH;928;C;13.90;9826923300017316057;0171202BH2920000048660;01/12/2017;TC 9826923300017316057;
09072005436958;3008780000001 OTHER VT;CURRENT & DEPOS;GBP;SAN;SANTANDER;928 - TRANSCASH;928;C;40.00;9826923300017417061;0171202BH2920000048670;01/12/2017;TC 9826923300017417061;
09072005436958;3008780000001 OTHER VT;CURRENT & DEPOS;GBP;SAN;SANTANDER;928 - TRANSCASH;928;C;300.00;9826923390008539031;0171202BH2920000048680;01/12/2017;TC 9826923390008539031;
09072005436958;3008780000001 OTHER VT;CURRENT & DEPOS;GBP;SAN;SANTANDER;928 - TRANSCASH;928;C;145.05;9826923390008549063;0171202BH2920000048690;01/12/2017;TC 9826923390008549063;
09072005436958;3008780000001 OTHER VT;CURRENT & DEPOS;GBP;SAN;SANTANDER;928 - TRANSCASH;928;C;180.00;9826923390008551044;0171202BH2920000048700;01/12/2017;TC 9826923390008551044;
09072005436958;3008780000001 OTHER VT;CURRENT & DEPOS;GBP;SAN;SANTANDER;928 - TRANSCASH;928;C;80.00;9826923390008587030;0171202BH2920000048710;01/12/2017;TC 9826923390008587030;
09072005436958;3008780000001 OTHER VT;CURRENT & DEPOS;GBP;SAN;SANTANDER;961 - BALANCE TRANSFER - DEBIT;961;D;-7357.38;SWEEPING;0171201BH3080000001060;01/12/2017;TRANSFER TO TANDRIDGE D C. REF: 0015 0462 696 0112907;
