ACCOUNT NUMBER;ACCOUNT NAME;PRODUCT SUB-TYPE;ACCOUNT CURRENCY;BANK-ID;BANK-NAME;TRANSACTION DESCRIPTION;TRANSACTION TYPE;DEBIT/CREDIT INDICATOR;AMOUNT;CUSTOMER REFERENCE;BANK REFERENCE;LEDGER DATE;NARRATIVE;
09072003438759;3008780000001 OTHER VT;CURRENT & DEPOS;GBP;SAN;SANTANDER;928 - TRANSCASH;928;C;90.00;9826920830001343058;0171111BH3400000028441;10/11/2017;TC 9826920830001343058;
09072003438759;3008780000001 OTHER VT;CURRENT & DEPOS;GBP;SAN;SANTANDER;928 - TRANSCASH;928;C;180.00;9826920830003834088;0171111BH3400000028451;10/11/2017;TC 9826920830003834088;
09072003438759;3008780000001 OTHER VT;CURRENT & DEPOS;GBP;SAN;SANTANDER;928 - TRANSCASH;928;C;40.00;9826920830017525060;0171111BH3400000028461;10/11/2017;TC 9826920830017525060;
09072003438759;3008780000001 OTHER VT;CURRENT & DEPOS;GBP;SAN;SANTANDER;928 - TRANSCASH;928;C;40.00;9826920830020797060;0171111BH3400000028471;10/11/2017;TC 9826920830020797060;
09072003438759;3008780000001 OTHER VT;CURRENT & DEPOS;GBP;SAN;SANTANDER;928 - TRANSCASH;928;C;157.00;9826920830020981045;0171111BH3400000028481;10/11/2017;TC 9826920830020981045;
09072003438759;3008780000001 OTHER VT;CURRENT & DEPOS;GBP;SAN;SANTANDER;928 - TRANSCASH;928;C;15.00;9826920830024113009;0171111BH3400000028491;10/11/2017;TC 9826920830024113009;
09072003438759;3008780000001 OTHER VT;CURRENT & DEPOS;GBP;SAN;SANTANDER;928 - TRANSCASH;928;C;60.00;9826920830037851108;0171111BH3400000028501;10/11/2017;TC 9826920830037851108;
09072003438759;3008780000001 OTHER VT;CURRENT & DEPOS;GBP;SAN;SANTANDER;928 - TRANSCASH;928;C;118.00;9826920830078851058;0171111BH3400000028511;10/11/2017;TC 9826920830078851058;
09072003438759;3008780000001 OTHER VT;CURRENT & DEPOS;GBP;SAN;SANTANDER;928 - TRANSCASH;928;C;221.00;9826920830087376071;0171111BH3400000028521;10/11/2017;TC 9826920830087376071;
09072003438759;3008780000001 OTHER VT;CURRENT & DEPOS;GBP;SAN;SANTANDER;928 - TRANSCASH;928;C;51.23;9826920830109456000;0171111BH3400000028531;10/11/2017;TC 9826920830109456000;
09072003438759;3008780000001 OTHER VT;CURRENT & DEPOS;GBP;SAN;SANTANDER;928 - TRANSCASH;928;C;119.00;9826920830133944013;0171111BH3400000028541;10/11/2017;TC 9826920830133944013;
09072003438759;3008780000001 OTHER VT;CURRENT & DEPOS;GBP;SAN;SANTANDER;928 - TRANSCASH;928;C;211.00;9826920830155801109;0171111BH3400000028551;10/11/2017;TC 9826920830155801109;
09072003438759;3008780000001 OTHER VT;CURRENT & DEPOS;GBP;SAN;SANTANDER;928 - TRANSCASH;928;C;160.00;9826920830157045101;0171111BH3400000028561;10/11/2017;TC 9826920830157045101;
09072003438759;3008780000001 OTHER VT;CURRENT & DEPOS;GBP;SAN;SANTANDER;928 - TRANSCASH;928;C;5.00;9826920830157070091;0171111BH3400000028571;10/11/2017;TC 9826920830157070091;
09072005436958;3008780000001 OTHER VT;CURRENT & DEPOS;GBP;SAN;SANTANDER;928 - TRANSCASH;928;C;148.24;9826923300000431251;0171111BH3400000028581;10/11/2017;TC 9826923300000431251;
09072005436958;3008780000001 OTHER VT;CURRENT & DEPOS;GBP;SAN;SANTANDER;928 - TRANSCASH;928;C;10.00;9826923300000518073;0171111BH3400000028591;10/11/2017;TC 9826923300000518073;
09072005436958;3008780000001 OTHER VT;CURRENT & DEPOS;GBP;SAN;SANTANDER;928 - TRANSCASH;928;C;5.00;9826923300001352019;0171111BH3400000028601;10/11/2017;TC 9826923300001352019;
09072005436958;3008780000001 OTHER VT;CURRENT & DEPOS;GBP;SAN;SANTANDER;928 - TRANSCASH;928;C;150.00;9826923300001549234;0171111BH3400000028611;10/11/2017;TC 9826923300001549234;
09072005436958;3008780000001 OTHER VT;CURRENT & DEPOS;GBP;SAN;SANTANDER;928 - TRANSCASH;928;C;130.00;9826923300002560107;0171111BH3400000028621;10/11/2017;TC 9826923300002560107;
09072005436958;3008780000001 OTHER VT;CURRENT & DEPOS;GBP;SAN;SANTANDER;928 - TRANSCASH;928;C;500.00;9826923300003096051;0171111BH3400000028631;10/11/2017;TC 9826923300003096051;
09072005436958;3008780000001 OTHER VT;CURRENT & DEPOS;GBP;SAN;SANTANDER;928 - TRANSCASH;928;C;450.00;9826923300003976054;0171111BH3400000028641;10/11/2017;TC 9826923300003976054;
09072005436958;3008780000001 OTHER VT;CURRENT & DEPOS;GBP;SAN;SANTANDER;928 - TRANSCASH;928;C;490.00;9826923300004515042;0171111BH3400000028651;10/11/2017;TC 9826923300004515042;
09072005436958;3008780000001 OTHER VT;CURRENT & DEPOS;GBP;SAN;SANTANDER;928 - TRANSCASH;928;C;130.00;9826923300004877061;0171111BH3400000028661;10/11/2017;TC 9826923300004877061;
09072005436958;3008780000001 OTHER VT;CURRENT & DEPOS;GBP;SAN;SANTANDER;928 - TRANSCASH;928;C;560.00;9826923300005239089;0171111BH3400000028671;10/11/2017;TC 9826923300005239089;
09072005436958;3008780000001 OTHER VT;CURRENT & DEPOS;GBP;SAN;SANTANDER;928 - TRANSCASH;928;C;26.00;9826923300005626202;0171111BH3400000028681;10/11/2017;TC 9826923300005626202;
09072005436958;3008780000001 OTHER VT;CURRENT & DEPOS;GBP;SAN;SANTANDER;928 - TRANSCASH;928;C;130.00;9826923300005851255;0171111BH3400000028691;10/11/2017;TC 9826923300005851255;
09072005436958;3008780000001 OTHER VT;CURRENT & DEPOS;GBP;SAN;SANTANDER;928 - TRANSCASH;928;C;60.00;9826923300006145186;0171111BH3400000028701;10/11/2017;TC 9826923300006145186;
09072005436958;3008780000001 OTHER VT;CURRENT & DEPOS;GBP;SAN;SANTANDER;928 - TRANSCASH;928;C;200.00;9826923300006707217;0171111BH3400000028711;10/11/2017;TC 9826923300006707217;
09072005436958;3008780000001 OTHER VT;CURRENT & DEPOS;GBP;SAN;SANTANDER;928 - TRANSCASH;928;C;6.92;9826923300007323147;0171111BH3400000028721;10/11/2017;TC 9826923300007323147;
09072005436958;3008780000001 OTHER VT;CURRENT & DEPOS;GBP;SAN;SANTANDER;928 - TRANSCASH;928;C;115.00;9826923300007681114;0171111BH3400000028731;10/11/2017;TC 9826923300007681114;
09072005436958;3008780000001 OTHER VT;CURRENT & DEPOS;GBP;SAN;SANTANDER;928 - TRANSCASH;928;C;110.00;9826923300007885186;0171111BH3400000028741;10/11/2017;TC 9826923300007885186;
09072005436958;3008780000001 OTHER VT;CURRENT & DEPOS;GBP;SAN;SANTANDER;928 - TRANSCASH;928;C;115.00;9826923300008255041;0171111BH3400000028751;10/11/2017;TC 9826923300008255041;
09072005436958;3008780000001 OTHER VT;CURRENT & DEPOS;GBP;SAN;SANTANDER;928 - TRANSCASH;928;C;150.00;9826923300008524164;0171111BH3400000028761;10/11/2017;TC 9826923300008524164;
09072005436958;3008780000001 OTHER VT;CURRENT & DEPOS;GBP;SAN;SANTANDER;928 - TRANSCASH;928;C;90.46;9826923300009712016;0171111BH3400000028771;10/11/2017;TC 9826923300009712016;
09072005436958;3008780000001 OTHER VT;CURRENT & DEPOS;GBP;SAN;SANTANDER;928 - TRANSCASH;928;C;90.46;9826923300009712016;0171111BH3400000028781;10/11/2017;TC 9826923300009712016;
09072005436958;3008780000001 OTHER VT;CURRENT & DEPOS;GBP;SAN;SANTANDER;928 - TRANSCASH;928;C;12.00;9826923300012694037;0171111BH3400000028791;10/11/2017;TC 9826923300012694037;
09072005436958;3008780000001 OTHER VT;CURRENT & DEPOS;GBP;SAN;SANTANDER;928 - TRANSCASH;928;C;103.33;9826923300012817067;0171111BH3400000028801;10/11/2017;TC 9826923300012817067;
09072005436958;3008780000001 OTHER VT;CURRENT & DEPOS;GBP;SAN;SANTANDER;928 - TRANSCASH;928;C;38.46;9826923300013533028;0171111BH3400000028811;10/11/2017;TC 9826923300013533028;
09072005436958;3008780000001 OTHER VT;CURRENT & DEPOS;GBP;SAN;SANTANDER;928 - TRANSCASH;928;C;120.00;9826923300013613028;0171111BH3400000028821;10/11/2017;TC 9826923300013613028;
09072005436958;3008780000001 OTHER VT;CURRENT & DEPOS;GBP;SAN;SANTANDER;928 - TRANSCASH;928;C;40.00;9826923300013918070;0171111BH3400000028831;10/11/2017;TC 9826923300013918070;
09072005436958;3008780000001 OTHER VT;CURRENT & DEPOS;GBP;SAN;SANTANDER;928 - TRANSCASH;928;C;7.00;9826923300013989238;0171111BH3400000028841;10/11/2017;TC 9826923300013989238;
09072005436958;3008780000001 OTHER VT;CURRENT & DEPOS;GBP;SAN;SANTANDER;928 - TRANSCASH;928;C;8.00;9826923300014328220;0171111BH3400000028851;10/11/2017;TC 9826923300014328220;
09072005436958;3008780000001 OTHER VT;CURRENT & DEPOS;GBP;SAN;SANTANDER;928 - TRANSCASH;928;C;40.00;9826923300014488222;0171111BH3400000028861;10/11/2017;TC 9826923300014488222;
09072005436958;3008780000001 OTHER VT;CURRENT & DEPOS;GBP;SAN;SANTANDER;928 - TRANSCASH;928;C;50.00;9826923300014683145;0171111BH3400000028871;10/11/2017;TC 9826923300014683145;
09072005436958;3008780000001 OTHER VT;CURRENT & DEPOS;GBP;SAN;SANTANDER;928 - TRANSCASH;928;C;31.78;9826923300015276055;0171111BH3400000028881;10/11/2017;TC 9826923300015276055;
09072005436958;3008780000001 OTHER VT;CURRENT & DEPOS;GBP;SAN;SANTANDER;928 - TRANSCASH;928;C;365.00;9826923300015336057;0171111BH3400000028891;10/11/2017;TC 9826923300015336057;
09072005436958;3008780000001 OTHER VT;CURRENT & DEPOS;GBP;SAN;SANTANDER;928 - TRANSCASH;928;C;100.00;9826923300015350249;0171111BH3400000028901;10/11/2017;TC 9826923300015350249;
09072005436958;3008780000001 OTHER VT;CURRENT & DEPOS;GBP;SAN;SANTANDER;928 - TRANSCASH;928;C;200.00;9826923300015455048;0171111BH3400000028911;10/11/2017;TC 9826923300015455048;
09072005436958;3008780000001 OTHER VT;CURRENT & DEPOS;GBP;SAN;SANTANDER;928 - TRANSCASH;928;C;72.00;9826923300016202134;0171111BH3400000028921;10/11/2017;TC 9826923300016202134;
09072005436958;3008780000001 OTHER VT;CURRENT & DEPOS;GBP;SAN;SANTANDER;928 - TRANSCASH;928;C;200.00;9826923300016396050;0171111BH3400000028931;10/11/2017;TC 9826923300016396050;
09072005436958;3008780000001 OTHER VT;CURRENT & DEPOS;GBP;SAN;SANTANDER;928 - TRANSCASH;928;C;55.02;9826923300016494038;0171111BH3400000028941;10/11/2017;TC 9826923300016494038;
09072005436958;3008780000001 OTHER VT;CURRENT & DEPOS;GBP;SAN;SANTANDER;928 - TRANSCASH;928;C;5.00;9826923300016607217;0171111BH3400000028951;10/11/2017;TC 9826923300016607217;
09072005436958;3008780000001 OTHER VT;CURRENT & DEPOS;GBP;SAN;SANTANDER;928 - TRANSCASH;928;C;7.00;9826923300016927219;0171111BH3400000028961;10/11/2017;TC 9826923300016927219;
09072005436958;3008780000001 OTHER VT;CURRENT & DEPOS;GBP;SAN;SANTANDER;928 - TRANSCASH;928;C;30.00;9826923300017052017;0171111BH3400000028971;10/11/2017;TC 9826923300017052017;
09072005436958;3008780000001 OTHER VT;CURRENT & DEPOS;GBP;SAN;SANTANDER;928 - TRANSCASH;928;C;97.60;9826923300017305183;0171111BH3400000028981;10/11/2017;TC 9826923300017305183;
09072005436958;3008780000001 OTHER VT;CURRENT & DEPOS;GBP;SAN;SANTANDER;961 - BALANCE TRANSFER - DEBIT;961;D;-3464.75;SWEEPING;0171110BH3520000001051;10/11/2017;TRANSFER TO TANDRIDGE D C. REF: 0015 0462 696 0110837;
