VOL1810967                                                                                          
HDR1A400000S         81096700010001000100 17333 20237 000000                                        
HDR2F0000000100                                   00                                                
UHL1 17333000967    0000000011DAILY  001            SYNDC           DISK 000                        
4035409109809809983142000220959033400003134627UBS DIST               3147532      TANDRIDGE DISTRICT
4035409109809809960043502000016033400000338038CROUDACE HOMES LTDACCOUNT T092      TANDRIDGE DISTRICT
4035409109809809940130742128322033400000044000CHURCHILL RETIREMEHEX BACS          TANDRIDGE DISTRICT
4035409109809809940354001373862033400005000000TANDRIDGE TST LEISLOAN REPAYMENT    TANDRIDGE COUNCIL 
4035409109809809920000053053571033400000017650IGL - PRODUCTION  PRO PYR 30/11/2017TANDRIDGE COMMERCI
4035409109809809920675930102954033400000077000CLEAR CHANNEL UK 100146478PA        TANDRIDGE DISTRICT
4035409109809809923929003078055033400001098299FTB 2811          013030294         TANDRIDGE DISTRICT
4035409109809809923929003078055033400001947775FTB 2811          013034281         TANDRIDGE DISTRICT
4035409109809809993809211877180033400000015400AIB 2811          013196506         TANDRIDGE DISTRICT
4035409109809809930000201243999033400000264000GK B&R AP ACCOUNT 10402194          DTO               
4035409109809809940116080163880033400000005417SURREY CC GENERAL 2004276622        TANDRIDGE GENERAL 
4035409109809809920514313284859033400000000528PARETO MONEY MANAG300831679         TANDRIDGE DISTR   
4035409109809809940516266371526033400000011900IAN GOODING       301314978         TANDRIDGE DC      
4035409109809809940025041023721033400000017688SODEXO EDUCATION  301365530         TANDRIDGE DISTRICT
4035409109809809940516250137133033400000034427ROBERT LEECH ESTAT301666271         T D C             
4035409109809809960000148186783033400000603600GVA GRIMLEY CLIENT5TAN001           TANDRIDGE DISTRICT
4035409109809809960000148186783033400000024000GVA GRIMLEY CLIENT55TAN001          TANDRIDGE DISTRICT
4035409109809809923104817703101033400000741500MONIER REDLAND LTD74000622          TANDRIDGE DISTRICT
EOF1A400000S         81096700010001000100 17333 20237 000018                                        
EOF2F0000000100                                   00                                                
UTL10000000000000000001337584900000000000018                                                        
