VOL1810967                                                                                          
HDR1A400000S         81096700010001000100 17325 20229 000000                                        
HDR2F0000000100                                   00                                                
UHL1 17325000967    0000000011DAILY  001            SYNDC           DISK 000                        
4035409109809809930801210908868032600000072851ELMBRIDGE B C     ELMBRIDGE BC      TANDRIDGE DC      
4035409109809809960214046372121032600000039040TM PROPERTY SEARCHTMSEARCHES        TANDRIDGE DISTRICT
4035409109809809923929003078055032600001648663FTB 2011          013030294         TANDRIDGE DISTRICT
4035409109809809923929003078055032600001618702FTB 2011          013034281         TANDRIDGE DISTRICT
4035409109809809993809211877180032600000023750AIB 2011          013196506         TANDRIDGE DISTRICT
4035409109809809930963502009386032600000035600ANCHOR TRUST      91098098          TANDRIDGE DISTRICT
EOF1A400000S         81096700010001000100 17325 20229 000006                                        
EOF2F0000000100                                   00                                                
UTL10000000000000000000343860600000000000006                                                        
