VOL1810967                                                                                          
HDR1A400000S         81096700010001000100 17331 20235 000000                                        
HDR2F0000000100                                   00                                                
UHL1 17331000967    0000000011DAILY  001            SYNDC           DISK 000                        
4035409109809809960043553252705033200000003206MRS P. O BLACKFORD                  TANDRIDGE DI640293
4035409109809809940354091098098033200015053353                                BACSTANDRIDGE DC      
4035409109809809960214046372121033200000014120TM PROPERTY SEARCHTMSEARCHES        TANDRIDGE DISTRICT
4035409109809809923929003078055033200000440685FTB 2411          013030294         TANDRIDGE DISTRICT
4035409109809809923929003078055033200001445333FTB 2411          013034281         TANDRIDGE DISTRICT
4035409109809809993809211877180033200000032800AIB 2411          013196506         TANDRIDGE DISTRICT
4035409109809809960708010011757033200011044600DWP RESOURCE MANAG1039249296        TANDRIDGE DISTRICT
4035409109809809940116080163880033200002406458SURREY CC GENERAL 2004274822        TANDRIDGE GENERAL 
4035409109809809960000148186783033200000116300GVA GRIMLEY CLIENT5TAN001           TANDRIDGE DISTRICT
4035409109809809960000148186783033200000251018GVA GRIMLEY CLIENT5TAN001           TANDRIDGE DISTRICT
4035409109809809960000148186783033200000894900GVA GRIMLEY CLIENT55TAN001          TANDRIDGE DISTRICT
4035409109809809940025011347969033200000101400CBRE LLOYDS RATES 7070995X          TANDRIDGE         
4035409109809809940025011347969033200000152600CBRE LLOYDS RATES 70721262          TANDRIDGE         
4035409109809809920377573360938033200000083300GL HEARN MANAGEMEN73983739          TANDRIDGE D.C.    
4035409109809809920377573360938033200000389200GL HEARN MANAGEMEN73983748          TANDRIDGE D.C.    
EOF1A400000S         81096700010001000100 17331 20235 000015                                        
EOF2F0000000100                                   00                                                
UTL10000000000000000003242927300000000000015                                                        
