VOL1810967                                                                                          
HDR1A400000S         81096700010001000100 17317 20221 000000                                        
HDR2F0000000100                                   00                                                
UHL1 17317000967    0000000011DAILY  001            SYNDC           DISK 000                        
4035409109809809920000060453137031800000159600NATS EN ROUTE PLC NAT2 2000108424 K TANDRIDGE DISTRICT
4035409109809809960300690103033031800000222200NATS SERVICES LTD NAT3 2000043133 K TANDRIDGE DISTRICT
4035409109809809960214046372121031800000091920TM PROPERTY SEARCHTMSEARCHES        TANDRIDGE DISTRICT
4035409109809809923929003078055031800000550399FTB 1011          013030294         TANDRIDGE DISTRICT
4035409109809809923929003078055031800001655285FTB 1011          013034281         TANDRIDGE DISTRICT
4035409109809809920829450664162031800000104732LEONARDCHESHIRE   301656846 30165686TANDRIDGE DISTRICT
4035409109809809930929201431815031800000142628K R GREENLAND FARM301668307         TANDRIDGE COUNCIL 
EOF1A400000S         81096700010001000100 17317 20221 000007                                        
EOF2F0000000100                                   00                                                
UTL10000000000000000000292676400000000000007                                                        
