VOL1810967                                                                                          
HDR1A400000S         81096700010001000100 17339 20243 000000                                        
HDR2F0000000100                                   00                                                
UHL1 17339000967    0000000011DAILY  001            SYNDC           DISK 000                        
4035409109809809960214046372121034000000049840TM PROPERTY SEARCHTMSEARCHES        TANDRIDGE DISTRICT
4035409109809809923929003078055034000004421156FTB 0412          013030294         TANDRIDGE DISTRICT
4035409109809809923929003078055034000004997959FTB 0412          013034281         TANDRIDGE DISTRICT
4035409109809809993809211877180034000000039650AIB 0412          013196506         TANDRIDGE DISTRICT
4035409109809809993809211877180034000000071650AIB 0412          013207139         TANDRIDGE DISTRICT
4035409109809809950000021723710034000000408120HUB DAILY         092020220         TANDRIDGE DIST CNL
4035409109809809920051753916294034000019255641HMRC VAT REPAY    210 9746 74       TANDRIDGE DISTRICT
4035409109809809980200006137147034000000026450CHHG LIMITED      7136272           TANDRIDGE DC      
EOF1A400000S         81096700010001000100 17339 20243 000008                                        
EOF2F0000000100                                   00                                                
UTL10000000000000000002927046600000000000008                                                        
