VOL1710967                                                                                          
HDR1A400000S         71096700010001000100 17330 20235 000000                                        
HDR2F0000000100                                   00                                                
UHL1 17330710967    0000000011DAILY  001            SYNDC           DISK 000                        
4035409109809809907011604605326033000000011797Rasmusen Sarah    000014738G RASMUSETANDRDIGE D/C     
4035409109809809908924910414178033000000008600MR J D MARSH      30122830X         TANDRIDGE DC      
4035409109809809909012671481156033000000025049ROBERT MORRELL                      TANDRIDGE PITCHE  
4035409109809809909012662366756033000000066200ROBERT PARKIN-BROWInvoice 7134699   Tandridge DC      
4035409109809809909013313337381033000000015320LISA DEFRIES      300120646         TANDRIDGE D C     
4035409109809809911063500660262033000000011000S Brennan         000008014C        TANDRIDGE DISTRICT
4035409109809809911085200866360033000000017800N Burt            301561402         TANDRIDGE DISTRICT
4035409109809809920246433535940033000000015800REUMERMAN W J J   301420136         TANDRIDGE D/C     
4035409109809809920240060212873033000000014000STREATER J        301443360         TANDRIDGE DC      
4035409109809809920359053039323033000000026500BLADEN J          301352967         TANDRIDGE D/C     
4035409109809809930917222065768033000000003500D Norton          300696615         TANDRIDGE DISTRICT
4035409109809809930929221481368033000000014200C Miskelly        300706383         TANDRIDGE D C     
4035409109809809940031541597388033000000019000Henk J & C        301530844         TANDRIDGE CTAX    
4035409109809809940382261072668033000000017900SEXTON D          301152108         TANDRIDGE CTAX    
4035409109809809960080972243775033000000021900GAUSDEN L         301525942         TANDRIDGE DIST CNC
4035409109809809960132878215668033000000017800OLUBAJO AFA       301349707         TANDRIDGE DISTRICT
EOF1A400000S         71096700010001000100 17330 20235 000000                                        
EOF2F0000000100                                   00                                                
UTL10000000000000000000030636600000000000016                                                        
