VOL1710967                                                                                          
HDR1A400000S         71096700010001000100 17332 20237 000000                                        
HDR2F0000000100                                   00                                                
UHL1 17332710967    0000000011DAILY  001            SYNDC           DISK 000                        
4035409109809809907011626184583033200000017700Enstone Elaine    300914665         TANDRIDGE DC      
4035409109809809907011638875906033200000002000Thomas Lydia      965378            TDC               
4035409109809809907024623988197033200000020000Hill Kirsty       RR000014516E      TDC               
4035409109809809907043605400405033200000001000Chorley Corinne   RR000015142M      TANDRIDGE DISTRICT
4035409109809809908928622257831033200000025700MRS S E LOCKETT   301274654         TANDRIDGE DC      
4035409109809809909012631429417033200000003500MISS KRISTINA CORN1118496           TANDRIDGE COUNCI  
4035409109809809909012670103545033200000002000STACEY THORNHILL  1092509           Tandridge Counci  
4035409109809809909012631678116033200000003174TERENCE MAY       RR000016071Y      TANDRIDGE DISTRICT
4035409109809809909012631678116033200000000500TERENCE MAY       301521726         TANDRIDGE DISTRICT
4035409109809809909012722144339033200000004000BECKY HARPER      11094921113129    TANDRIDGECOUNCIL  
4035409109809809909012838386984033200000029900WAYNE VARNEY      301538605         TANDRIDGE DIST COU
4035409109809809909012834982861033200000014600MARGARET ROOK     30139067X         TANDRIDGE DC      
4035409109809809909012869154813033200000008000CLAIRE TURNER     RR0005801 0 8                       
4035409109809809909012813757240033200000005000KERRY BEEKMANS    1082807198695     TANDRIDGE CC      
4035409109809809909013639913385033200000010863KEVIN COLEMAN     RR000015978G      TANDRIDGE DISTRICT
4035409109809809909072003438759033200000726857TANDRIDGE D C     &SWEE&SWEEPING 090TANDRIDGE D C     
4035409109809809911000105101276033200000006000LIMBACHIA MISS    20 ST JOHNS COURT TANDRIDGE DC      
4035409109809809911000105101276033200000002000A LIMBACHIA       300977262         TANDRIDGE DISTRICT
4035409109809809911000107974423033200000001000A MUHAMAD         30163170X         TANDRIDGE DISTRICT
4035409109809809911012400129423033200000013800L ROBERTS         301529597         TANDRIDGE COUNCIL 
4035409109809809911016601749780033200000020300M SCOTT           301674750         TANDRIDGE DISTRICT
4035409109809809911018300807562033200000001695S REEVES          1077809           TANDRIDGE COUNCIL 
4035409109809809911021601297384033200000021700I ASHWORTH        301375879         TANDRIDGE DISTRICT
4035409109809809911021600269756033200000040033P ORMANROYD       300793696         TANDRIDGE DISTRICT
4035409109809809911021911426665033200000002500C CLAY            000017183N        TANDRIDGE COUNCIL 
4035409109809809911063500171260033200000002000R TURNER          000016129W        TANDRIDGE COUNCIL 
4035409109809809911063500755419033200000013500J TURNER          COUNCIL 301054884 TANDRIDGE COUNCIL 
4035409109809809911063511577760033200000020000J Bryant          000015055D        TANDRIDGE DISTRICT
4035409109809809911142300196956033200000025600B HE              301423188         TANDRIDGE DISTRICT
4035409109809809911152100083908033200000052500G Jennings        000005166T        TANDRIDGE DISTRICT
4035409109809809911152100083908033200000022000G Jennings        300230325         TANDRIDGE DISTRICT
4035409109809809911910927703127033200000035900MrsV Camp         301428229         Tandridge DC      
4035409109809809916202956368571033200000024400LIONGATE LTD      301657019 LIONGATETANDRIDGE COUNCIL 
4035409109809809916605011351459033200000013300MR WAI THUM       300254377         TANDRIDGE DIST CNC
4035409109809809920765563815145033200000001000PUGH S D          RR000017084P      TANDRIDGE COUNCIL 
4035409109809809920239743144925033200000002000STEEDON C         1118412           TANDRIDGE D/C - HO
4035409109809809920240043836525033200000029700PEDERSEN HR       301577627         TANDRIDGE D/C     
4035409109809809920246103502147033200000001000GEAL + GOLDSMITH  1051126           TANDRIDGE D/C - HO
4035409109809809920246450469726033200000004400WILSON S          301466254         TANDRIDGE D/C     
4035409109809809920055703282384033200000012000PACKHAM P         000016953B        TANDRIDGE D/C H R 
4035409109809809920926050383597033200000017803NGONYAMAH NJ BPO  30159303X         TANDRIGDE DISTRICT
4035409109809809920274800583731033200000029800FRASER SJ FPO     300800910         TANDRIDGE D/C     
4035409109809809920239810204552033200000011900KENRICK M         301446732         TANDRIDGE B/RATES 
4035409109809809920239870637394033200000000334JORDAN M          RR000014060J      TANDRIDGE D/C H R 
4035409109809809920716430283991033200000005700BUCKLAND FG       300235761         TDC               
4035409109809809920701533062120033200000003000NDAGIRE MULUMBA   1067123           TANDRIDGE COUNCIL 
4035409109809809920239803601137033200000001000MCKAY L G         301614363         TANDRIDGE D/C     
4035409109809809920246180389269033200000008000FREED LD          30159031X         TANDRIDGE D/C     
4035409109809809920246180389269033200000029800FREED LD          301566114         TANDRIDGE D/C     
4035409109809809920246423303713033200000021700PASK S M          300074238         TANDRIDGE D/C     
4035409109809809920240030894230033200000009400DRYGAS WK         301662037         TANDRIDGE D/C     
4035409109809809920240073172023033200000019700WELLS C L         301642480         TANDRIDGE D/C     
4035409109809809920709420427322033200000001010SHARPLESS V       000008475D        TANDRIDGE D/C H R 
4035409109809809920801493844846033200000029000MARTI B+DA SI H   301668076         TANDBRIDGE COUNCIL
4035409109809809923058017619136033200000023200MACIEJ JOZEF MATYS30166870X         Surrey County Coun
4035409109809809930155303245468033200000059400K Newport         301057568         TANDRIDGE DISTRICT
4035409109809809930917200953433033200000017700A Hobbs           301519704         TANDRIDGE DISTRICT
4035409109809809930917243091068033200000001000K DYER            30155146X         TANDRIDGE         
4035409109809809930917200953433033200000017700A Hobbs           301519704         TANDRIDGE DISTRICT
4035409109809809930917202952574033200000003500Raw Skills FootbalID 124380 INV6441 TANDRIDGE DISTRICT
4035409109809809930917231653960033200000018758C Clemmey         301673441         TANDRIDGE DISTRICT
4035409109809809930917225705968033200000000300                  RR000005882M      TANDRIDGE DISTRICT
4035409109809809930917210819360033200000001000S LEWIN           301103617         TANDRIDGE COUNCIL 
4035409109809809930917202581363033200000016300V Sharma          301471559         TANDRIDGE DISTRICT
4035409109809809930917217437268033200000024000S Sheridan        301629036         TANDRIDGE DISTRICT
4035409109809809930918323905668033200000025700T LLEWELYN        301579655         TANDRIDGE COUNCIL 
4035409109809809930924501123583033200000002500PICKTON A.        1105580           TANDRIDGE DISTRICT
4035409109809809930928300043146033200000010000A SQUIRES         MI 04679217 CP2977TANDRIDGE COUNCIL 
4035409109809809930943801971765033200000012000L CAPON           301353550         TANDRIDGE CC      
4035409109809809930960700572032033200000003353S MCLOUGHLIN      300996584         TANDRIDGE DISTRICT
4035409109809809940092531705431033200000017800RADFORD&LINF      301440785         TANDRIDGE DC GEN  
4035409109809809940115820420980033200000026600MOREL J           301483323         TANDRIDGE DC GEN  
4035409109809809940121501322818033200000017700MIDDLET HA&M      30085021X         TANDRIDGE CTAX    
4035409109809809940184121927655033200000029900HUSSEIN EM        301073014         TANDRIDGE DC GEN  
4035409109809809940331401454153033200000017800STEEDM & CAR      301523665         TANDRIDGE CTAX    
4035409109809809940380851422707033200000002500BURKES M R        000015231Y        TANDRIDGE DC GEN  
4035409109809809940451781479164033200000011827ROSS CYC LTD      123318            TANDRIDGE DC GEN  
4035409109809809940462001510134033200000030600SOUTH EAS         74002060          TANDRIDGE CTAX    
4035409109809809940462061405977033200000021800MALYNN F J        301556627         TANDRIDGE CTAX    
4035409109809809940475938443351033200000029500HARRINGTON SJ     301612531         TANDRIDGE CTAX    
4035409109809809940476084309537033200000029600CASLEY&CASLEY     301427027         TANDRIDGE DC GEN  
4035409109809809940478630724904033200000011638STEELE RJ         RR0000130004P     TANDRIDGE CTAX    
4035409109809809950410105306361033200000009225R KING FRUITERERS REF IY309461      TANDRIDGE DIST CNL
4035409109809809955703079003079033200000008000GERRARD A E       500001372         TANDRIDGE DC      
4035409109809809955703079052045033200000001500MCNEIL EP         000017246T        TANDRIDGE DISTRICT
4035409109809809956004658885846033200000042000SWAIN AC          301519043         TANDRIDGE DIST CNC
4035409109809809960043511184167033200000005000MISS PAIGE J HERSERR000016335D      TANDRIDGE DC      
4035409109809809960043511151706033200000001200MISS MARIA WILLIAMRR000014756E      TANDRIDGE D C     
4035409109809809960061488000788033200000013500ELMY RG     CP    301628237         TANDRIDGE DIST CNC
4035409109809809960062060587865033200000022650P&B LETT & MAN LTDP&B LETT & MAN LTDTANDRIDGE DISTRICT
4035409109809809960062060587865033200000018500P&B LETT & MAN LTDP&B LETT & MAN LTDTANDRIDGE DISTRICT
4035409109809809960062060587865033200000017700P&B LETT & MAN LTDP&B LETT & MAN LTDTANDRIDGE DISTRICT
4035409109809809960071742715253033200000021600BEVEN NJ          300710332         TANDRIDGE DIST CNC
4035409109809809960111519319622033200000014000HRACHOVEC P       301519179         TANDRIDGE DIST CNC
4035409109809809960160971694358033200000017700MUDDELL D J T/A TP300611594         TANDRIDGE DIST CNC
4035409109809809960160975631601033200000001500MISS CLAIRE E ISTE122211            TANDRIDGE D C     
4035409109809809960160975528932033200000021300KRISHNAN V & R    301088609         TANDRIDGE DIST CNC
4035409109809809960160975612860033200000012000MISS ANGELA JONES RR000014121K      TANDRIDGE COUNCIL 
4035409109809809960161628205588033200000017500FRANKLIN M A      301245854         TANDRIDGE DIST CNC
4035409109809809960193453698967033200000002010RAYNER L D        301502692 RAYNER  TANDRIDGE DIST CNC
4035409109809809960203942527643033200000001000SMITH MS A        301483824         COUNCIL TAX       
4035409109809809960203934491988033200000014886SPIRES CENTRE     SPIRES/300166989  TANDRIDGE COUNCIL 
4035409109809809960210830573785033200000015800HARRIS S          301077212         TANDRIDGE COUNCIL 
4035409109809809960240485602760033200000019700RYCHTER GS        301666923         TANDRIDGE DIST CNC
4035409109809809977300133072160033200000003500E Wilson          301601996         TANDRIDGE DISTRICT
EOF1A400000S         71096700010001000100 17332 20237 000000                                        
EOF2F0000000100                                   00                                                
UTL10000000000000000000221671600000000000105                                                        
