VOL1710967                                                                                          
HDR1A400000S         71096700010001000100 17320 20225 000000                                        
HDR2F0000000100                                   00                                                
UHL1 17320710967    0000000011DAILY  001            SYNDC           DISK 000                        
4035409109809809908930013117618032000000001000MR CURRIE         301392240         TANDRIDGE COUNCIL 
4035409109809809908930013117618032000000001000MR CURRIE         1055737 &1079522  TANDRIDGE D COUN  
4035409109809809909012612620552032000000012618JENNIFER CHRISTMASRR000000627U                        
4035409109809809911015200326198032000000000500S WILLIAMS        301241754         TANDRIDGE B C     
4035409109809809911024400008804032000000013728S WEIGHT          000013547U        TANDRIDGE COUNCIL 
4035409109809809911026311130163032000000000500K HOBBS           1115897           TANDRIDGE COUNCIL 
4035409109809809911026311130163032000000000500K HOBBS           RR000013954C      TANDRIDGE DISTRICT
4035409109809809911026311130163032000000000500K HOBBS           301410809         TANDRIDGE DISTRICT
4035409109809809911063500667267032000000026000A Catford         300610848         TANDRIDGE DISTRICT
4035409109809809911910002775537032000000012831MrMGBrownsey      MI 04679217 CP298 Tandridge DC      
4035409109809809915100024217305032000000065400CAP - G8055DD     301563922         TANDRIDGE DISTRICT
4035409109809809916313020719522032000000003674TIA DANIELLE ROSS RR000016947U      TANDRIDGE DISTRICT
4035409109809809920881383194981032000000003200WALL J A          30125013X         TANDRIDGE D/C - HO
4035409109809809920239703803627032000000011400BURGESS J A       301608116         TANDRIDGE D/C - HO
4035409109809809920239770118222032000000010000ANDREWS-SPEED S   RR000013591Y      TANDRIDGE DISTRICT
4035409109809809920246133523535032000000029600NORMAN DJ         300611502         TANDRIDGE D/C     
4035409109809809920246103502147032000000007500GEAL + GOLDSMITH  301247579         TANDRIDGE D/C - HO
4035409109809809920239820707503032000000004925ELFORD J+J        MI 04679217 CP 873TANDRIDGE COUNCIL 
4035409109809809920701500135917032000000003500PITT L            301561153         TANDRIDGE D/C     
4035409109809809920765553710637032000000026900TC TRAVELLER CO   CUSTOMER ID121243 TANDRIDGEDC       
4035409109809809920881303980634032000000021500JAFFREY +FRANCIS  301375331         TANDRIDGE D/C     
4035409109809809920968930107085032000000036000ADAMIUK DA+M      7136355           TANDRIDGE D/C - OT
4035409109809809930917222065768032000000003500D Norton          300696615         TANDRIDGE DISTRICT
4035409109809809930917202288593032000000011300B MOLYNEUX        RR000015543N      TANDRIDGE DISTRICT
4035409109809809930923813110668032000000004000P EARNELL         301348855         TANDRIDGE COUNCIL 
4035409109809809930923813110668032000000012000P EARNELL         000016432A        TANDRIDGE COUNCIL 
4035409109809809930929224355560032000000003363S Feher           301609953         TANDRIDGE DISTRICT
4035409109809809940162881095129032000000042263LANGLEY T&N       RR000002616E      TANDRIDGE DC GEN  
4035409109809809940372921417924032000000011100ELPHICK           30127845X         TANDRIDGE CTAX    
4035409109809809940380881397176032000000019300ROOPUN K          COUNCIL TAX       TANDRIDGE DC GEN  
4035409109809809955611146686134032000000021741SAIPAS K       S00301422709         TANDRIDGE DISTRICT
4035409109809809955701378010993032000000017800SCRIVENER MJ F/RES300314247         TANDRIDGE DIST CNC
4035409109809809960010441578384032000000001000VASSILA LL        301267161         TANGRIDGE C.C     
4035409109809809960043511131748032000000000500MISS SANDRA M POWERR000016180J      TANDRIDGE D C     
4035409109809809960053482058334032000000038859NAZARYAN A        301292854         TANDRIDGE DIST CNC
4035409109809809960070140418634032000000000558REDFEARN S & K S  30137141X         TANDRIDGE DIST CNC
4035409109809809960071742745330032000000001800MISS DAISY L COHEN301556340         TANDRIDGE DISTRICT
4035409109809809960071796781599032000000005000MRS LINDA AITKEN  300424015         TANDRIDGE COUNCIL 
4035409109809809960071796781599032000000013000MRS LINDA AITKEN  000001080J        TANDRIDGE DIST COU
4035409109809809960160373813281032000000100000EDUCATION INCORPOR73997774          TANDRIDGE DIST CNC
4035409109809809960160975542773032000000009000MISS AMANDA TAYLORRR000012324P      TANDRIDGE D C     
4035409109809809960160975619334032000000000375MRS CAROLE J GRIFF000016661K        TANDRIDGE DIS CNCL
4035409109809809960160975577860032000000000305MR JEFFREY M GEORG000013843N        TANDRIDGE DC      
4035409109809809960221667028764032000000036772MISS LISA M COLEMARR000017420J      TANDRIDGE DC      
4035409109809809977301786442660032000000001000CREASEY L  PBI F  RR000014090X      TANDRIDGE DISTRICT
EOF1A400000S         71096700010001000100 17320 20225 000000                                        
EOF2F0000000100                                   00                                                
UTL10000000000000000000064731200000000000045                                                        
