VOL1710967                                                                                          
HDR1A400000S         71096700010001000100 17313 20218 000000                                        
HDR2F0000000100                                   00                                                
UHL1 17313710967    0000000011DAILY  001            SYNDC           DISK 000                        
4035409109809809908924902423436031300000002392MR W GIBSON       90006660 0 0      TANDRIDGE DC      
4035409109809809909012648151192031300000003540KEITH PIERCE      RR 000009565R     TANDRIDGE COUNCIL 
4035409109809809909012612620552031300000012618JENNIFER CHRISTMASRR000000627U                        
4035409109809809909012746186373031300000000727MISS CHERYL PALMERRR000014483N      TANDRIDGE DISTRICT
4035409109809809909012862149430031300000003000LYNDA AITKEN      300424015         TANDRIDGE COUNCIL 
4035409109809809911011410386965031300000020000C Harris-Smith    301115016         TANDRIDGE DISTRICT
4035409109809809911015200326198031300000000500S WILLIAMS        301241754         TANDRIDGE B C     
4035409109809809911026300410394031300000029800S Heeney          300671257         TANDRIDGE DISTRICT
4035409109809809911026311130163031300000000500K HOBBS           301410809         TANDRIDGE DISTRICT
4035409109809809911026311130163031300000000500K HOBBS           RR000013954C      TANDRIDGE DISTRICT
4035409109809809911026311270266031300000033752EMMA LORRAINE LAY RR000014676E      TANDRIDGE D/C H R 
4035409109809809911026311130163031300000000500K HOBBS           1115897           TANDRIDGE COUNCIL 
4035409109809809916201514978315031300000013000ANGELA LOUISE BARN000012856E        TANDRIDGE DC 2    
4035409109809809916313020719522031300000002949TIA DANIELLE ROSS RR000016947U      TANDRIDGE DISTRICT
4035409109809809920881383194981031300000003200WALL J A          30125013X         TANDRIDGE D/C - HO
4035409109809809920750100839345031300000022000STITT ISD         301572880         TANDRIDGE DISTRICT
4035409109809809920678340939692031300000018142DICKENS LC        RR000012799H      TANDRIDGE D/C - HO
4035409109809809920239770118222031300000010000ANDREWS-SPEED S   RR000013591Y      TANDRIDGE DISTRICT
4035409109809809920246103502147031300000007500GEAL + GOLDSMITH  301247579         TANDRIDGE D/C - HO
4035409109809809920841730908061031300000004000ALLEN M A BCCA    000016571Y        TANDRIDGE D/C - HO
4035409109809809920246163545598031300000049800CATE DIG LTD SW   73969559          TANDRIDGE DISTRICT
4035409109809809920765520613088031300000029400MAINWARING JC+EA  300885273         TANDRIDGE DC      
4035409109809809920801493844846031300000029000MARTI B+DA SI H   301668076         TANDBRIDGE COUNCIL
4035409109809809930917202288593031300000011300B MOLYNEUX        RR000015543N      TANDRIDGE DISTRICT
4035409109809809930917201814690031300000013300R Kirk            301636850         TANDRIDGE DISTRICT
4035409109809809930923813110668031300000004000P EARNELL         301348855         TANDRIDGE COUNCIL 
4035409109809809930923813110668031300000012000P EARNELL         000016432A        TANDRIDGE COUNCIL 
4035409109809809930929224355560031300000004000S Feher           301609953         TANDRIDGE DISTRICT
4035409109809809930929230524960031300000016200HONEYSUMS HOLSTER 7396761X          TANDRIDGE DC      
4035409109809809930944136201860031300000022300C Holdsworth      300935084         TANDRIDGE DISTRICT
4035409109809809930983628147360031300000012000P Semwanga        301024111         TANDRIDGE DISTRICT
4035409109809809930998813473268031300000030000B Badmus          301589901         TANDRIDGE DISTRICT
4035409109809809940020601180185031300000017800ANDERSON W M      300936740         TANDRIDGE CTAX    
4035409109809809940041591774670031300000018900STREMTAN D        301418150         TANDRIDGE CTAX    
4035409109809809940041591774670031300000009300STREMTAN D        17/19/01/69/51/46 TANDRIDGE CTAX    
4035409109809809940050068958831031300000025700HART R            301591754         TANDRIDGE CTAX    
4035409109809809940062121554093031300000013300OZIWO UF          301081217         TANDRIDGE CTAX    
4035409109809809940200971589229031300000018000VICTORIA S&S      116625 INV 7136045TANDRIDGE CTAX    
4035409109809809940403001035177031300000036290SANDERSTEAD REM NO301163915         TANDRIDGE COUNCIL 
4035409109809809940476030173789031300000017500TOMPKINS&NESBITT  301517024         TANDRIDGE CTAX    
4035409109809809940477540853399031300000020000MERRITT JJ&J      RR000009921K      TANDRIDGE CTAX    
4035409109809809954303671054340031300000018000BAILEY JM         300864344         TANDRIDGE DIST CNC
4035409109809809960010441578384031300000001000VASSILA LL        301267161         TANGRIDGE C.C     
4035409109809809960043511131748031300000000500MISS SANDRA M POWERR000016180J      TANDRIDGE D C     
4035409109809809960043511210095031300000065841THE WEDDING LOOK B74003146          TANDRIDGE DIST CNC
4035409109809809960071796781599031300000005000MRS LINDA AITKEN  300424015         TANDRIDGE COUNCIL 
4035409109809809960071796781599031300000013000MRS LINDA AITKEN  000001080J        TANDRIDGE DIST COU
4035409109809809960071742745330031300000001800MISS DAISY L COHEN301556340         TANDRIDGE DISTRICT
4035409109809809960160975542773031300000009000MISS AMANDA TAYLORRR000012324P      TANDRIDGE D C     
4035409109809809960160975577860031300000000305MR JEFFREY M GEORG000013843N        TANDRIDGE DC      
4035409109809809960203942527643031300000001000SMITH MS A        1112298           TANDRIDGE COUNCIL 
4035409109809809960211237352687031300000214000BROOKLANDS INTRN  7114437X          TANDRIDGE DISTRICT
4035409109809809960604048322555031300000025000GILLIES D A       300704631         TANDRIDGE DIST CNC
4035409109809809977301786442660031300000001000CREASEY L  PBI F  RR000014090X      TANDRIDGE DISTRICT
EOF1A400000S         71096700010001000100 17313 20218 000000                                        
EOF2F0000000100                                   00                                                
UTL10000000000000000000095415600000000000054                                                        
