VOL1710967                                                                                          
HDR1A400000S         71096700010001000100 17324 20229 000000                                        
HDR2F0000000100                                   00                                                
UHL1 17324710967    0000000011DAILY  001            SYNDC           DISK 000                        
4035409109809809907011636036116032400000042000Halford Paul      000016838G        TANDRIDGE DISTRICT
4035409109809809907011642551433032400000003350Fraser Jason      9000750401        TANDRIDGE DISTRICT
4035409109809809907011604605326032400000011797Rasmusen Sarah    000014738G RASMUSETANDRDIGE D/C     
4035409109809809907011642783262032400000027131Lorraine Stuart   000001847U        TANDRIDGE DISTRICT
4035409109809809907024639481416032400000001000Sawyer Casey      1110517           TANDRIDGE DISTRICT
4035409109809809907024609641869032400000022039Denyer Marianne   301669115         TANDRIDGE DISTRICT
4035409109809809907043613987393032400000000500Watt Nicola       000016087U        TANDRIDGE DISTRICT
4035409109809809907043625189220032400000001374Rhodes Maria      RR000004703N      TANDRIDGE DISTRICT
4035409109809809907043631934809032400000000500Bridgland James   300367212         TANDRIDGE COUCIL  
4035409109809809907043631934809032400000001200Bridgland James   000005399H        TANDRIDGE COUNCIL 
4035409109809809908924903433632032400000000346MRS MCVEA         RR000005104P      TANDRIDGE COUNCIL 
4035409109809809908924913373009032400000012101MRS & MR MCLOUGHLIRR000000315D      TANDRIDGE DC      
4035409109809809908924914029640032400000004100MR R D WILLIAMS   301157615         PANDRIDGE COUNCIL 
4035409109809809908929965117268032400000002100TATSFIELD VILLAGE TEN TVH           TANDRIDGE DC      
4035409109809809908930079297129032400000000655MRS BROOKS        RR000012516E      TANDRIDGE COUNCIL 
4035409109809809909012636742869032400000022000LARA SCRIVENER    30104225          Tandridge Distri  
4035409109809809909012614749839032400000006344CAROLINE TURNER   RR000003746T      TANDRIDGE DISTRICT
4035409109809809909012635417920032400000013400EMMA BOAKES       301617860         tandridge distri  
4035409109809809909012705627394032400000000900RICHARD NEWELL    301179577                           
4035409109809809909012705627394032400000003257RICHARD NEWELL    0000133474U                         
4035409109809809909012719814407032400000002928CLAIRE UPFOLD     301384727         Tandridge Disctr  
4035409109809809909012722663768032400000000600SIAN FITZPATRICK  301150027         council tax       
4035409109809809909012712362723032400000002000WAYNE CHARMAN     RR000015715D      TANDRIDGE DISTRICT
4035409109809809909012867723518032400000000500RICHARD BEADLE    1115538           TANDRIDGE DISTRICT
4035409109809809909012830195720032400000020600KAROLINA WECLAWEK 301273265         COUNICL TAX       
4035409109809809909013220252580032400000019600ROBIN JEMMISON    301668808         TANDRIDGECOUNCIL  
4035409109809809909013359594409032400000010466PATRICK BOLGER    RR000003547U      TANDRIDGE DISTRICT
4035409109809809909013358473802032400000006391ANNE TAYLOR       RR000001597F      TANDRIDGE DISTRICT
4035409109809809909013494611383032400000001000EMMA JACOMBS      1111406           tandridge coumci  
4035409109809809911000110129809032400000026700S Pluck           301465034         TANDRIDGE DISTRICT
4035409109809809911000109323694032400000011104J INDRIUNIENE     RR000014977F      TANDRIDGE COUNCIL 
4035409109809809911021310731566032400000003000G MUNNS           1031670           TANDRIDGE DISTRIC 
4035409109809809911021301498639032400000010675J DEVEREAUX       RR000008052A      TANDRIDGE COUNCIL 
4035409109809809911021910859460032400000005000S Singh           1119466           TANDRIDGE DISTRICT
4035409109809809911026300499702032400000006000WINTON T.         1095823           TANDRIDGE DISTRICT
4035409109809809911142300096412032400000015076B Wigmore         301008692         TANDRIDGE DISTRICT
4035409109809809911152100221755032400000002200M POOLE           ID 113300         TANDRIDGE COUNCIL 
4035409109809809911156200071408032400000006500L PALMER          1103029           TANDRIDGE DISTRICT
4035409109809809916172512058758032400000003258PILGRIM MRS JC    000015935D        TANDRIDGE DISTRICT
4035409109809809916172512058758032400000000900PILGRIM MRS JC    301503651         TANDRIDGE DIST TAX
4035409109809809916201514774876032400000000500LISA SARA KNOWLES RR000009555D      TENDRIDGE DC      
4035409109809809916201516509118032400000000509PAULINE MARGARET MTM CLIENT FASTER  TANDRIDGE CIUNCIL 
4035409109809809916605112652255032400000011682JACKMAN MISS S    301674984         TANDRIDGE DIST CNC
4035409109809809920765573671801032400000012000RUSSELL K         2RR000002715D     TANDRIDGE D/C - HO
4035409109809809920765590476838032400000002000PERKINS KL        1061035           TANDRIDGE DISTRIC 
4035409109809809920765523781429032400000000500LEIGH J           301399697         TANDRIDGE D/C - HO
4035409109809809920239710585076032400000007920LINGF SPORTS ASS  MI 04679217 CP528 TANDRIDGE DISTRICT
4035409109809809920239770118222032400000002900ANDREWS-SPEED S   30030739X         TANDRIDGE DISTRICT
4035409109809809920246103284514032400000005000BRIERE-EDN SJ     301083441         TANDRIDGE         
4035409109809809920246140668257032400000013277THOMPSON+RUNCIM   RR000007520J      TANDRIDGE COUNCIL 
4035409109809809920246140668257032400000003400THOMPSON+RUNCIM   300501055         TANDRIDGE DIST COU
4035409109809809920246470326666032400000008661WELDGABR FH       90008457          TANDRIDGE DISTRICT
4035409109809809920246443472183032400000001000BROWN K           1034677           TANDRIDGE DISTRICT
4035409109809809920246470495727032400000011200MCELROY SJ        000016860J        TANDRIDGE D/C - HO
4035409109809809920246440735558032400000001687ZABITGIL M        RR000011909W      TANDRIDGE DISTRICT
4035409109809809920414120330930032400000005000CASTELA AM        1123779           TANDRIDGE COUNCIL 
4035409109809809920701503428095032400000000700WATSON T L        000013315D        TANDRIDGE D/C - H 
4035409109809809920239850406430032400000045797TANDRIDGE DC      GRENCAR REMIT 2011TANDRIDGE DISTRICT
4035409109809809920246140897914032400000008900ALLEN GS  APO     30135888X         TANDRIDGE D/C     
4035409109809809920765500622257032400000015516MASTIN JC         30117422X         TANDRIDGE D/C     
4035409109809809920246180550183032400000025600LANDYMORE JD      301612101         TANDRIDGE D/C     
4035409109809809920709493816443032400000068000NEIL P            000016403N        TANDRIDGE D/C - HO
4035409109809809920202023726886032400000013000C WILLIAMS        RR000012860J      TANDRIDGE DIST COU
4035409109809809920407330771570032400000025700P J FRANCIS       300821204         TANDRIDGE D/C     
4035409109809809923058016211435032400000000420JANE ROBINSON     000017365R        Tandridge District
4035409109809809930129500011189032400000029900T O'Shea          30123444X         TANDRIDGE C/TAX   
4035409109809809930843420721968032400000038758K Butler          301675059         TANDRIDGE DISTRICT
4035409109809809930904918765960032400000004544S GODBOLD         000014147U        TANDRIDGE DIST COU
4035409109809809930909212378068032400000010500J O'CONNELL       301435542         TANDRIDGE DISTRICT
4035409109809809930913500755047032400000017700S Patel           300971250         TANDRIDGE C/TAX   
4035409109809809930917224983068032400000010728FISHER N.         RR000016777F      TRANDRIDGE DISTRIC
4035409109809809930917231735968032400000005000L PACKMAN         1066179           TANDRIDGE COUNCIL 
4035409109809809930917238729860032400000020000M LISTON          RR000015966T      TANDRIDGE  DISTRIC
4035409109809809930917201629060032400000003747C WARREN          RR000003431Y      TANDRIDGE D C     
4035409109809809930917200377475032400000001662                  7136239                             
4035409109809809930917241507968032400000001500M DRISCOLL        6 BRIAR CR69PF    TRANDRIDGE COUNCIL
4035409109809809930917231735968032400000003500L PACKMAN         301010758         TANDRIDGE COUNCIL 
4035409109809809930917243608760032400000017700M Sinoai          30165936X         TANDRIDGE DISTRICT
4035409109809809930917225138160032400000002500LEWIS E.          301031195         TANDRIDGE DISTRICT
4035409109809809930917245703160032400000009148RAYMOND EDWARD BIGRR000008838G      TANDRIDGE DC GEN  
4035409109809809930917234959668032400000017800I CHRISTMAS       300505342         TANDRIDGE COUNCIL 
4035409109809809930924016794368032400000022000L Shuter-Givry    301671128         TANDRIDGE DISTRICT
4035409109809809930924500971378032400000016908I Beaton          301175593         TANDRIDGE DISTRICT
4035409109809809930929217026068032400000001500M CHAMBERLAIN     1032080           TUNBRIDGE COUNCIL 
4035409109809809930929211808860032400000005267B CHILCOTT        000002287U        TANDRIDGE DC      
4035409109809809930932300664520032400000029600M Hunt            301541373         TANDRIDGE DISTRICT
4035409109809809930943801289786032400000005000J PEARCE          300454358         TANDRIDGE C/TAX   
4035409109809809930943815219668032400000010085D GALLOWAY        RR000013798G      TANDRIDGE D C     
4035409109809809930943801808856032400000000329SURREY & BORDERS P000016141K        TANDRIDGE DISTRICT
4035409109809809930943815219668032400000002400D GALLOWAY        30124417X         TANDRIDGE DISTRICT
4035409109809809930943810215560032400000001788H Simmonds        301389804         TANDRIDGE DISTRICT
4035409109809809940010010093343032400000012500MCCLEAN J&P       RR000003780J      TANDRIDGE DC GEN  
4035409109809809940020092766302032400000013800MOLONEY C         30134919X         TANDRIDGE CTAX    
4035409109809809940020085200210032400000012000Kaminski J&M      301400249 KAMINSKITANDRIDGE DC GEN  
4035409109809809940642011433949032400000025700MRS JENNIFER STEVE300417088         TANDRIDGE C/TAX   
4035409109809809940100090737917032400000012179REEVES M          16880J            TANDRIDGE DC GEN  
4035409109809809940162851032615032400000001274FARRINGTON W      RR000013472A      TANDRIDGE DC GEN  
4035409109809809940162861131753032400000013773ANDERTON LJ       301495125         TANDRIDGE CTAX    
4035409109809809940184193875865032400000017326Tumble Tots       7136265 TUMBLE TOTTANDRIDGE CTAX    
4035409109809809940184193875865032400000017326Tumble Tots       7136320 TUMBLE TOTTANDRIDGE CTAX    
4035409109809809940184411114964032400000021746ALLINSON RJ       301613591         TANDRIDGE CTAX    
4035409109809809940190491828738032400000078300BOTLEY HILL       73965780          TANDRIDGE CTAX    
4035409109809809940200941490664032400000000329Pannell M A       000002877F        TANDRIDGE DC GEN  
4035409109809809940203531397729032400000025800LATCHAM A&L       301643118         TANDRIDGE CTAX    
4035409109809809940210363664589032400000017500CLARUS CLIEN      300193302         TANDRIDGE CTAX    
4035409109809809940354011407031032400000001220FARRELL K         RR 000017076E     TANDRIDGE DC GEN  
4035409109809809940354021428845032400000000420HART F            000016573B        TANDRIDGE DC GEN  
4035409109809809940354011407031032400000000373FARRELL K         RR000004608V      TANDRIDGE DC GEN  
4035409109809809940475920806706032400000014900DENNIE S          301545197         TANDRIDGE CTAX    
4035409109809809940478241336940032400000009399MIDGLEY PC        RR000014575D      TANDRIDGE DC GEN  
4035409109809809940478421067117032400000005500MARTIN K          301278191         TANDRIDGE CTAX    
4035409109809809940478630504025032400000000500VALENZA&MCWILLIA  VALENZA 09700-0330TANDRIDGE DC GEN  
4035409109809809952411260639253032400000000400STANDLEY K C      RR000015993B      TANDRIDGE DISTRICT
4035409109809809952411200816868032400000014900FRIEND M C & L    301054409         TANDRIDGE DIST CNC
4035409109809809954303639116255032400000002050MISS LACE M MEYERSRR000016804P      TANDRIDGE DC      
4035409109809809955703079048714032400000007912MISS DOROTHY RELYERR000005220J      TANDRIDGE DISTRICT
4035409109809809955703035854731032400000017800SHARP R           301398762         TANDRIDGE DIST CNC
4035409109809809955703002428903032400000012333BALDOCK A H & M   EE000006382M      TANDRIDGE DISTRICT
4035409109809809956006336257354032400000005000MR SUDHAKAR RAGUNA1093003           TANDRIDGE DC      
4035409109809809960010487267101032400000011800NICHOLSON S D     30152081X         TANDRIDGE DIST CNC
4035409109809809960043511073020032400000004000MR ARTHUR J STRUDW987084            TANDRIDGE DC      
4035409109809809960043511184698032400000000727MISS REBECCA PETTERR000014631YRENT  TANDRIDGE DC      
4035409109809809960043511163038032400000012749PROCTOR RJ        R000007406T       TANDRIDGE DISTRICT
4035409109809809960043511093730032400000000870MR GARY J LLOYD   RR000014375D      TANRIDGE COUNCIL  
4035409109809809960063334318704032400000000453DAVEY S           000016469W        TANDRIDGE DIST CNC
4035409109809809960071742731704032400000015881BOBBYS CONVEN. STO301547035         TANDRIDGE DIST CNC
4035409109809809960071741708687032400000186911SCANDIA HUS LTD   SCANDIA 74008448  TANDRIDGE DC      
4035409109809809960080166266750032400000016509RHA LTD PROCEEDS  301649522         TANDRIDGE COUNCIL 
4035409109809809960130942367905032400000014000MCGUINNESS J & J  RR000007139H      TANDRIDGE DISTRICT
4035409109809809960160975613638032400000000703ROOTS LM                            TANDRIDGE DIST    
4035409109809809960160975503328032400000012471BEHAGG J          RR000012416E      TANDRIDGE DISTRICT
4035409109809809960160975603942032400000008033ADAMS SJ          RR9000648609      TANDRIDGE DISTRICT
4035409109809809960160975605198032400000000373MR ANTHONY P SIBTHRR000001587U      TDC               
4035409109809809960193453645073032400000012260VOHRA A           7130359           TANDRIDGE DIST CNC
4035409109809809960920491360586032400000000372MRS GE WHITTLE    RR000007572A      TANDRIDGE D C     
4035409109809809977300589057168032400000000305M BROCKBANK       RR000016027U      TANDRIDGE D C     
4035409109809809977301288740368032400000011000G CASTLE          301127195         TANDRIDGE COUNCIL 
4035409109809809977301889520660032400000015700TROTT MRS         301366705         TANDRIDGE D C     
4035409109809809977632963088368032400000000500A LILLYWHITE      1070644           TANDRIDGE D C     
4035409109809809977713301770768032400000001678EDWARD MILLER     RR000007737F      .                 
4035409109809809977914464648860032400000021900J DALZIEL         301365183         TANDRIDGE COUNCIL 
EOF1A400000S         71096700010001000100 17324 20229 000000                                        
EOF2F0000000100                                   00                                                
UTL10000000000000000000162248000000000000141                                                        
