VOL1710967                                                                                          
HDR1A400000S         71096700010001000100 17323 20228 000000                                        
HDR2F0000000100                                   00                                                
UHL1 17323710967    0000000011DAILY  001            SYNDC           DISK 000                        
4035409109809809920701550263494032300000011440SAVILLE C         120527            TDC               
4035409109809809920252553026116032300000002073HOPKINS MJ        7713617           TANDRIDGE D/C - OT
4035409109809809940024432510693032300000029600LEWIS R & Y       301445227         TANDRIDGE CTAX    
4035409109809809940443762128233032300000018000ITC LTD           INV 7136124       TANDRIDGE CTAX    
4035409109809809950423768353413032300000066200HAZZARD PJG /ESAV 7136137           SBC               
EOF1A400000S         71096700010001000100 17323 20228 000000                                        
EOF2F0000000100                                   00                                                
UTL10000000000000000000012731300000000000005                                                        
