VOL1710967                                                                                          
HDR1A400000S         71096700010001000100 17325 20230 000000                                        
HDR2F0000000100                                   00                                                
UHL1 17325710967    0000000011DAILY  001            SYNDC           DISK 000                        
4035409109809809907024609508301032500000024029Dickson Dean      COUNCIL TAX       TANDRIDGE COUNCIL 
4035409109809809907043605400405032500000001000Chorley Corinne   RR000015142M      TANDRIDGE DISTRICT
4035409109809809909012670103545032500000002000STACEY THORNHILL  1092509           Tandridge Counci  
4035409109809809909012631678116032500000003174TERENCE MAY       RR000016071Y      TANDRIDGE DISTRICT
4035409109809809909012631678116032500000000500TERENCE MAY       301521726         TANDRIDGE DISTRICT
4035409109809809909012711296450032500000000600LEE SORRELL       301439508         TDC CT            
4035409109809809909012869154813032500000008000CLAIRE TURNER     RR0005801 0 8                       
4035409109809809909012840501883032500000013200WILLIAM BURNS     301651769         Tandridge Counci  
4035409109809809909013308574583032500000032261BARRY KENNEDY     301670294         TANDRIDGECOUNCIL  
4035409109809809909013639913385032500000010863KEVIN COLEMAN     RR000015978G      TANDRIDGE DISTRICT
4035409109809809909072003438759032500000505264TANDRIDGE D C     &SWEE&SWEEPING 090TANDRIDGE D C     
4035409109809809911000105101276032500000002000A LIMBACHIA       300977262         TANDRIDGE DISTRICT
4035409109809809911000107974423032500000001000A MUHAMAD         30163170X         TANDRIDGE DISTRICT
4035409109809809911000105101276032500000006000LIMBACHIA MISS    20 ST JOHNS COURT TANDRIDGE DC      
4035409109809809911000108651053032500000003000W Cooper          RR000013277F      TANDRIDGE DISTRICT
4035409109809809911018300807562032500000001695S REEVES          1077809           TANDRIDGE COUNCIL 
4035409109809809911021601293391032500000088000T Sturt           300573057         TANDRIDGE DISTRICT
4035409109809809911021911426665032500000002500C CLAY            000017183N        TANDRIDGE COUNCIL 
4035409109809809911152110247964032500000001052C LEADBEATER      000016893B        TANDRIDGE DISTRICT
4035409109809809911152110247964032500000002000C LEADBEATER      000000255D        TANDRIDGE DISTRICT
4035409109809809916201516064582032500000017000VANESSA  WILSON   301436780         TANDRIDGE DC      
4035409109809809920055760637777032500000004700KELLY TR          301664065         TANDRIDGE D/C     
4035409109809809920122603469352032500000001000SHEEHY A J        301120070         TANDRIDGE D/C     
4035409109809809920454573659070032500000029000CATER EXPRE LTD   74003950          TANDRIDGE DISTRICT
4035409109809809920765563815145032500000001000PUGH S D          RR000017084P      TANDRIDGE COUNCIL 
4035409109809809920879413774368032500000000500WALKER Y L        301254696         TANDRIDGE D/C     
4035409109809809920239783258718032500000001000SMITH L J         000016806T        TANDRIDGE D/C - HO
4035409109809809920246103502147032500000001000GEAL + GOLDSMITH  1051126           TANDRIDGE D/C - HO
4035409109809809920246450469726032500000004400WILSON S          301466254         TANDRIDGE D/C     
4035409109809809920055703282384032500000012000PACKHAM P         000016953B        TANDRIDGE D/C H R 
4035409109809809920239870637394032500000000334JORDAN M          RR000014060J      TANDRIDGE D/C H R 
4035409109809809920701520354597032500000029600SCOT V + COLL M   301594204         TANDRIDGE D/C     
4035409109809809920765573894452032500000024245BRUWER E          330167338         TANDRIDGE D/C     
4035409109809809920246100753750032500000023700RIGNALL MS        301121254         TANDRIDGE D/C     
4035409109809809920320040280941032500000029500ADAMS J BPO       300625922         TANDRIDGE D/C     
4035409109809809920709420427322032500000001010SHARPLESS V       000008475D        TANDRIDGE D/C H R 
4035409109809809930917242555268032500000005000H Harris          7113147           TANDRIDGE DISTRICT
4035409109809809930917221874868032500000003500GOODWIN MRS       106376            TANDRIDGE DC      
4035409109809809930917212266668032500000004092L BAKER           RR000011839H      TANDRIDGE COUNCIL 
4035409109809809930917225705968032500000000300                  RR000005882M      TANDRIDGE DISTRICT
4035409109809809930917243607260032500000018000A Geana           301614078         TANDRIDGE DISTRICT
4035409109809809930917243091068032500000001000K DYER            30155146X         TANDRIDGE         
4035409109809809930917210819360032500000001000S LEWIN           301103617         TANDRIDGE COUNCIL 
4035409109809809930917200649327032500000005286BARKER D Z9L F    RR000003914C      TANDRIDGE DISTRICT
4035409109809809930943825383960032500000500000M HAMMOND         73957532          TANDRIDGE DC      
4035409109809809930963113011668032500000000700R El-asmar        30153519X         TANDRIDGE DISTRICT
4035409109809809940162821392867032500000001730CITYWEB CLIE      301381275         TANDRIDGE CTAX    
4035409109809809940162891393324032500000283000HILLIAR A         300521505         TANDRIDGE CTAX    
4035409109809809940184102373572032500000017000ROATA A           301596582         TANDRIDGE CTAX    
4035409109809809940380861214888032500000005100DAWSON SNW        301466746         TANDRIDGE CTAX    
4035409109809809940451781479164032500000011827ROSS CYC LTD      123318            TANDRIDGE DC GEN  
4035409109809809940471971130773032500000016000HIGGINS J E       301297092         TANDRIDGE DC GEN  
4035409109809809940475938280258032500000014000SAMUELS AV        301527907         TANDRIDGE DC GEN  
4035409109809809940477370021695032500000013200JORDAN T          7136319/110244    TANDRIDGE CTAX    
4035409109809809952411260661100032500000005000MRS FIONA LOVELAND997702            TANDRIDGE DC      
4035409109809809955703079052045032500000001500MCNEIL EP         000017246T        TANDRIDGE DISTRICT
4035409109809809955703079127487032500000020000BRYAN J           301278502         TANDRIDGE DIST CNC
4035409109809809960043511037628032500000003500BICKERS SL        956222            TANDRIDGE COUNCIL 
4035409109809809960043511163348032500000010000OKUSAGA SIGE      000017030X        TANDRIDGE DIST CNC
4035409109809809960043511151706032500000001200MISS MARIA WILLIAMRR000014756E      TANDRIDGE D C     
4035409109809809960043511184167032500000005000MISS PAIGE J HERSERR000016335D      TANDRIDGE DC      
4035409109809809960160975612860032500000012000MISS ANGELA JONES RR000014121K      TANDRIDGE COUNCIL 
4035409109809809960160971674926032500000018000HARRINGTON L J    300220328         TANDRIDGE DIST CNC
4035409109809809960193453698967032500000002010RAYNER L D        301502692 RAYNER  TANDRIDGE DIST CNC
4035409109809809960203942527643032500000001000SMITH MS A        301483824         COUNCIL TAX       
4035409109809809960233481591810032500000017700GIBBONS L & M     301295411         TANDRIDGE DIST CNC
4035409109809809960300690274873032500000032300LADYHAYE INTERNA  74006124          TAND DIST CNCL    
4035409109809809977300862393460032500000021615D Coles           30084197X         TANDRIDGE C/TAX   
EOF1A400000S         71096700010001000100 17325 20230 000000                                        
EOF2F0000000100                                   00                                                
UTL10000000000000000000193968700000000000068                                                        
