VOL1710967                                                                                          
HDR1A400000S         71096700010001000100 17317 20222 000000                                        
HDR2F0000000100                                   00                                                
UHL1 17317710967    0000000011DAILY  001            SYNDC           DISK 000                        
4035409109809809907011605075363031700000054348Tough Belinda     RR000005394C      TANDRIDGE DISTRICT
4035409109809809907011642551433031700000003350Fraser Jason      9000750401        TANDRIDGE DISTRICT
4035409109809809907011643208548031700000022100Nash Ashlea       300303306         TANDRIDGE DISTRICT
4035409109809809907011604605326031700000011797Rasmusen Sarah    000014738G RASMUSETANDRDIGE D/C     
4035409109809809907024639481416031700000001000Sawyer Casey      1110517           TANDRIDGE DISTRICT
4035409109809809907043607363108031700000001000Davies Emily      301541767         MISS E DAVIES     
4035409109809809907043609939899031700000001000Tullett Shirley   1007154           TANDRIDGE DISTRICT
4035409109809809907043613987393031700000000500Watt Nicola       000016087U        TANDRIDGE DISTRICT
4035409109809809907043625189220031700000001374Rhodes Maria      RR000004703N      TANDRIDGE DISTRICT
4035409109809809907043631934809031700000000500Bridgland James   300367212         TANDRIDGE COUCIL  
4035409109809809907043631934809031700000001200Bridgland James   000005399H        TANDRIDGE COUNCIL 
4035409109809809908924903433632031700000000346MRS MCVEA         RR000005104P      TANDRIDGE COUNCIL 
4035409109809809908924913373009031700000012101MRS & MR MCLOUGHLIRR000000315D      TANDRIDGE DC      
4035409109809809908930079297129031700000000655MRS BROOKS        RR000012516E      TANDRIDGE COUNCIL 
4035409109809809909012632643263031700000012000RASHEEDA DENNIE   301463220         TANDRIDGE COUNCI  
4035409109809809909012625536060031700000017900RAFAEL FRANCIS    30053338X         COUNCIL TAX       
4035409109809809909012603145240031700000010000BARRY MILLARD     300444118         TANDRIDGE COUNCI  
4035409109809809909012705627394031700000000900RICHARD NEWELL    301179577                           
4035409109809809909012705627394031700000003257RICHARD NEWELL    0000133474U                         
4035409109809809909012722663768031700000000600SIAN FITZPATRICK  301150027         council tax       
4035409109809809909012712362723031700000002000WAYNE CHARMAN     RR000015715D      TANDRIDGE DISTRICT
4035409109809809909012867723518031700000000500RICHARD BEADLE    1115538           TANDRIDGE DISTRICT
4035409109809809909012869154813031700000008000CLAIRE TURNER     RR 90005801 0 8   TANDRIDGE COUNCIL 
4035409109809809909012854015530031700000035900BRIAN O'DONNELL   301448662         TANDRIDGE DC      
4035409109809809909013359594409031700000010466PATRICK BOLGER    RR000003547U      TANDRIDGE DISTRICT
4035409109809809909013358473802031700000006391ANNE TAYLOR       RR000001597F      TANDRIDGE DISTRICT
4035409109809809911000109323694031700000011104J INDRIUNIENE     RR000014977F      TANDRIDGE COUNCIL 
4035409109809809911011001420637031700000038500A Ralph           301507036         TANDRIDGE DISTRICT
4035409109809809911021301498639031700000010675J DEVEREAUX       RR000008052A      TANDRIDGE COUNCIL 
4035409109809809911021301297965031700000005500S Noonan          30162792X         TANDRIDGE DISTRICT
4035409109809809911021610049461031700000070507R Ford            301647595         TANDRIDGE DISTRICT
4035409109809809911063500685111031700000021000N COVENTRY        RR000015755D      TANDRIDGE D C     
4035409109809809916172512058758031700000003258PILGRIM MRS JC    000015935D        TANDRIDGE DISTRICT
4035409109809809916172512058758031700000000900PILGRIM MRS JC    301503651         TANDRIDGE DIST TAX
4035409109809809916201514774876031700000000500LISA SARA KNOWLES RR000009555D      TENDRIDGE DC      
4035409109809809916201516509118031700000000509PAULINE MARGARET MTM CLIENT FASTER  TANDRIDGE CIUNCIL 
4035409109809809916700111262006031700000024000HARRISON&WALSH    30166018X         TANDRIDGE DIST CNC
4035409109809809920454583353508031700000031300SHAHE CATER LTD   74004938          TANDRIDGE D/C - HO
4035409109809809920765573671801031700000012000RUSSELL K         2RR000002715D     TANDRIDGE D/C - HO
4035409109809809920765590476838031700000002000PERKINS KL        1061035           TANDRIDGE DISTRIC 
4035409109809809920765533342816031700000016072WALLER S          000008213B        TANDRIDGE D/C H R 
4035409109809809920239770118222031700000002900ANDREWS-SPEED S   30030739X         TANDRIDGE DISTRICT
4035409109809809920246103284514031700000005000BRIERE-EDN SJ     301083441         TANDRIDGE         
4035409109809809920246140668257031700000013277THOMPSON+RUNCIM   RR000007520J      TANDRIDGE COUNCIL 
4035409109809809920246140668257031700000003400THOMPSON+RUNCIM   300501055         TANDRIDGE DIST COU
4035409109809809920246470326666031700000008661WELDGABR FH       90008457          TANDRIDGE DISTRICT
4035409109809809920246443472183031700000001000BROWN K           1034677           TANDRIDGE DISTRICT
4035409109809809920246440735558031700000001687ZABITGIL M        RR000011909W      TANDRIDGE DISTRICT
4035409109809809920467320508861031700000012991PICKERING SC      301478655         TANDRIDGE D/C - HO
4035409109809809920338330062944031700000008424COLLINS D R       122661 D COLLINS  TANDRIDGE COUNCIL 
4035409109809809920701503428095031700000000700WATSON T L        000013315D        TANDRIDGE D/C - H 
4035409109809809920246453241718031700000008679BEWLEY H R        300954172         TANDRIDGE D/C     
4035409109809809920946773324850031700000031791TOMECKI B A       1144732           TANDRIGE COUNCIL  
4035409109809809920765583217272031700000008000BRENNAN A P       000016885R        TANDRIDGE D/C - HO
4035409109809809920240000352292031700000107200DE PHOTO LTD      73948361          TANDRIDGE DISTRICT
4035409109809809920202023726886031700000013000C WILLIAMS        RR000012860J      TANDRIDGE DIST COU
4035409109809809923058016211435031700000000420JANE ROBINSON     000017365R        Tandridge District
4035409109809809930904918765960031700000004544S GODBOLD         000014147U        TANDRIDGE DIST COU
4035409109809809930917241507968031700000001500M DRISCOLL        6 BRIAR CR69PF    TRANDRIDGE COUNCIL
4035409109809809930917210271460031700000035500M Gibbins         300630815         TANDRIDGE C/TAX   
4035409109809809930917200699685031700000024000S Collins         HSG 000012741K    TANDRIDGE DISTRICT
4035409109809809930917231735968031700000003500L PACKMAN         301010758         TANDRIDGE COUNCIL 
4035409109809809930917201629060031700000003747C WARREN          RR000003431Y      TANDRIDGE D C     
4035409109809809930917225138160031700000002500LEWIS E.          301031195         TANDRIDGE DISTRICT
4035409109809809930917224983068031700000010728FISHER N.         RR000016777F      TRANDRIDGE DISTRIC
4035409109809809930917201077130031700000015800J Juffs           301500833         TANDRIDGE DISTRICT
4035409109809809930929211808860031700000005267B CHILCOTT        000002287U        TANDRIDGE DC      
4035409109809809930929217026068031700000001500M CHAMBERLAIN     1032080           TUNBRIDGE COUNCIL 
4035409109809809930935551661368031700000023500ANGEVEN LIMITED T/74005245          TANDRIDGE DISTRICT
4035409109809809930943815219668031700000010085D GALLOWAY        RR000013798G      TANDRIDGE D C     
4035409109809809930943801289786031700000005000J PEARCE          300454358         TANDRIDGE C/TAX   
4035409109809809930943801663254031700000025900S Harper          300174617         TANDRIDGE C/TAX   
4035409109809809930943815219668031700000002400D GALLOWAY        30124417X         TANDRIDGE DISTRICT
4035409109809809930943801808856031700000000329SURREY & BORDERS P000016141K        TANDRIDGE DISTRICT
4035409109809809930947900394497031700000022100J Marten          300492104         TANDRIDGE DISTRICT
4035409109809809930982901798080031700000021700R COX             301512009  MR COX TANDRIDGE         
4035409109809809940010010093343031700000012500MCCLEAN J&P       RR000003780J      TANDRIDGE DC GEN  
4035409109809809940100090737917031700000012179REEVES M          16880J            TANDRIDGE DC GEN  
4035409109809809940110040664103031700000017600DAVEY J           301133299         TANDRIDGE CTAX    
4035409109809809940162891404709031700000001500WALKER D L        928331            TANDRIDGE DC GEN  
4035409109809809940162861125524031700000014900Taylor J&C        300860253         TANDRIDGE CTAX    
4035409109809809940200941490664031700000000329Pannell M A       000002877F        TANDRIDGE DC GEN  
4035409109809809940354071481819031700000004000POWELL MRS M      RR000015359H      TANDRIDGE DC GEN  
4035409109809809940354021428845031700000000420HART F            000016573B        TANDRIDGE DC GEN  
4035409109809809940354011407031031700000000373FARRELL K         RR000004608V      TANDRIDGE DC GEN  
4035409109809809940354011407031031700000001220FARRELL K         RR 000017076E     TANDRIDGE DC GEN  
4035409109809809940372981152742031700000016600PETERS J R        301610399         TANDRIDGE CTAX    
4035409109809809940380820814547031700000026200TILLEY JS&MI      300110219         TANDRIDGE CTAX    
4035409109809809940478241336940031700000009399MIDGLEY PC        RR000014575D      TANDRIDGE DC GEN  
4035409109809809940478421067117031700000007000MARTIN K          301278191         TANDRIDGE CTAX    
4035409109809809952411260639253031700000000400STANDLEY K C      RR000015993B      TANDRIDGE DISTRICT
4035409109809809952411242056136031700000011500STAPLES K & B     301553774         TANDRIDGE COUNCIL 
4035409109809809954303639116255031700000002050MISS LACE M MEYERSRR000016804P      TANDRIDGE DC      
4035409109809809954303639105024031700000002000COURT H & T       1119602           TDC               
4035409109809809955703002428903031700000012333BALDOCK A H & M   EE000006382M      TANDRIDGE DISTRICT
4035409109809809955703079048714031700000007912MISS DOROTHY RELYERR000005220J      TANDRIDGE DISTRICT
4035409109809809960043511163038031700000012749PROCTOR RJ        R000007406T       TANDRIDGE DISTRICT
4035409109809809960043511102764031700000010000ORMANDY SJ        1052882           TANDRIDGE COUNCIL 
4035409109809809960043511024011031700000001000BRYAN J           1121153           TANDRIDGE DISTRICT
4035409109809809960043511184698031700000000727MISS REBECCA PETTERR000014631YRENT  TANDRIDGE DC      
4035409109809809960051317630991031700000002300VALO PT           301188443         TANDRIDGE DIST CNC
4035409109809809960063334318704031700000000453DAVEY S           000016469W        TANDRIDGE DIST CNC
4035409109809809960071734373683031700000025600HARRIS J.A.       301592606         TANDRIDGE DIST CNC
4035409109809809960130942367905031700000014000MCGUINNESS J & J  RR000007139H      TANDRIDGE DISTRICT
4035409109809809960160975605198031700000000373MR ANTHONY P SIBTHRR000001587U      TDC               
4035409109809809960160975642921031700000001540MRS JESSIE M COBURRR000015707U      TANDRIDGE D C     
4035409109809809960160975613638031700000000703ROOTS LM                            TANDRIDGE DIST    
4035409109809809960160975503328031700000012471BEHAGG J          RR000012416E      TANDRIDGE DISTRICT
4035409109809809960604051009463031700000024400DEAN S J & D P    301197623         TANDRIDGE DIST CNC
4035409109809809960920491360586031700000000372MRS GE WHITTLE    RR000007572A      TANDRIDGE D C     
4035409109809809977300118770160031700000040856J MCCLEARY        RR000016146T      TANDRIDGE DISTRICT
4035409109809809977300589057168031700000000305M BROCKBANK       RR000016027U      TANDRIDGE D C     
4035409109809809977301786208360031700000018000O Fuller          COUNCIL TAX       TANDRIDGE DISTRICT
4035409109809809977302105230760031700000003000P RICHARDS        1118166           TANDRIDGE DISTRICT
4035409109809809977302105230760031700000003000P RICHARDS        1048003           TANDRIDGE COUNCIL 
4035409109809809977632963088368031700000000500A LILLYWHITE      1070644           TANDRIDGE D C     
4035409109809809977713301770768031700000001678EDWARD MILLER     RR000007737F      .                 
4035409109809809977914171424868031700000035000L Ryder           301636476         TANDRIDGE DISTRICT
4035409109809809983042510049893031700000050500TEMIS SYS LTD     80006159          CAT BID           
EOF1A400000S         71096700010001000100 17317 20222 000000                                        
EOF2F0000000100                                   00                                                
UTL10000000000000000000133368200000000000119                                                        
