VOL1710967                                                                                          
HDR1A400000S         71096700010001000100 17338 20243 000000                                        
HDR2F0000000100                                   00                                                
UHL1 17338710967    0000000011DAILY  001            SYNDC           DISK 000                        
4035409109809809907011605649890033800000021900Fowler Stephen    301291349         TANDRIDGE DC      
4035409109809809907011606139705033800000042422Wilkie Thomas     RR000005555D      TANDRIDGE DC      
4035409109809809907011632581227033800000029500Arnold Jean       300602224         TANDRIDGEDISTRICTC
4035409109809809907011642551433033800000003350Fraser Jason      9000750401        TANDRIDGE DISTRICT
4035409109809809907011642551433033800000000600Fraser Jason      301533359         TANDRIDGE DISTRICT
4035409109809809907011604605326033800000011797Rasmusen Sarah    000014738G RASMUSETANDRDIGE D/C     
4035409109809809907024613697836033800000015800Humphreys Peter   300898698         TANDRIDGE DISTRICT
4035409109809809907024639481416033800000001000Sawyer Casey      1110517           TANDRIDGE DISTRICT
4035409109809809907024607598729033800000013300Smith Graham      301195838         TANDRIDGE DISTRICT
4035409109809809907043600715149033800000013300Orme Melanie      300329107         TANDRIDGE C/TAX   
4035409109809809907043613987393033800000000500Watt Nicola       000016087U        TANDRIDGE DISTRICT
4035409109809809907043624843482033800000020490Stone Nikolas     301660368         TANDRIDGE DISTRICT
4035409109809809907043625189220033800000001374Rhodes Maria      RR000004703N      TANDRIDGE DISTRICT
4035409109809809907043631934809033800000001200Bridgland James   000005399H        TANDRIDGE COUNCIL 
4035409109809809907445606978292033800000018200Maziere Angela    301302307         TANDRIDGE DISTRICT
4035409109809809908924903433632033800000000346MRS MCVEA         RR000005104P      TANDRIDGE COUNCIL 
4035409109809809908924913373009033800000012101MRS & MR MCLOUGHLIRR000000315D      TANDRIDGE DC      
4035409109809809908928608065241033800000051400MRS E M SHEPARD   7136499           BUILDING CONTROL  
4035409109809809908930079297129033800000000655MRS BROOKS        RR000012516E      TANDRIDGE COUNCIL 
4035409109809809908930079195894033800000013400MR A V CHALMERS   301614499         TANDRIDGE DC      
4035409109809809909012665979014033800000014700SARAH SALES       300231198         TANDRIDGE COUNCI  
4035409109809809909012642892567033800000015800DARREN WEBB       301553021         COUNCIL TAX       
4035409109809809909012674621285033800000012400JAMES CAMPBELL    301288798         COUNCIL TAX       
4035409109809809909012674621285033800000002000JAMES CAMPBELL    1076965           COUNCIL RENT 1    
4035409109809809909012705627394033800000000900RICHARD NEWELL    301179577                           
4035409109809809909012705627394033800000003257RICHARD NEWELL    0000133474U                         
4035409109809809909012722663768033800000000600SIAN FITZPATRICK  301150027         council tax       
4035409109809809909012739357627033800000016000SARAH HILLDRUP    301031838         TANDRIDGE DC      
4035409109809809909012711296450033800000015700LEE SORRELL       301439508         TDC CT            
4035409109809809909012701617971033800000009800KAMARL SIMPSON    bill no 301550947 COUNCIL TAX       
4035409109809809909012712362723033800000002000WAYNE CHARMAN     RR000015715D      TANDRIDGE DISTRICT
4035409109809809909012777737610033800000015800SAMANTHA MANDRY   300378387         COUNCIL TAX       
4035409109809809909012821413424033800000020000GEOFFREY KELLS    301494700         Tandridge Council 
4035409109809809909012867723518033800000000500RICHARD BEADLE    1115538           TANDRIDGE DISTRICT
4035409109809809909012840795204033800000006000JACQUELINE HIGGINS73984799          TANDRIDGE RATES   
4035409109809809909012866016789033800000015000CHARLOTTE ELLIS   301521252         TANDRIDGE DC      
4035409109809809909012823232221033800000034600ZOSER BOULIS      74002795          TANDRIDGECOUNCIL  
4035409109809809909012906521480033800000025800COLIN MONCKTON    301638459         Tandridge DC      
4035409109809809909012907760994033800000024600CLAIRE TURNER     301169838         TANDRIDGE COUNCI  
4035409109809809909013328320889033800000014200GEORGINA ADJEBENG 30152459X         TANDRIDGE D C     
4035409109809809909013359594409033800000010466PATRICK BOLGER    RR000003547U      TANDRIDGE DISTRICT
4035409109809809909013358473802033800000006391ANNE TAYLOR       RR000001597F      TANDRIDGE DISTRICT
4035409109809809909013376827009033800000013800LEONARD WHELAN    301096098         Tandridge Counci  
4035409109809809909013439620880033800000017700ANGELA AGATHOCLI  300695324         TANDRIDGE DISTRICT
4035409109809809909013494611383033800000001000EMMA JACOMBS      1111406           tandridge coumci  
4035409109809809909013514173181033800000010500BRIAN DAVIES      300911391         B T DAVIES        
4035409109809809909013694513881033800000029600FARID GHATTAS     300734295         TANDRIDGE DISTRICT
4035409109809809909022210149425033800000058300AMAR PATEL        73987525          tandridge council 
4035409109809809911000109323694033800000011104J INDRIUNIENE     RR000014977F      TANDRIDGE COUNCIL 
4035409109809809911011000878157033800000017800M YULE            300059179         TANDRIDGE DC      
4035409109809809911011001420637033800000014900A RALPH           301507036         TANDRIDGE COUNCIL 
4035409109809809911012400195119033800000017700M SHANNON         301366456         TANDRIDGE COUNCIL 
4035409109809809911021301401013033800000002000S PARKER          301401718 C TAX   TANDRIDGE COUNCIL 
4035409109809809911021301498639033800000010675J DEVEREAUX       RR000008052A      TANDRIDGE COUNCIL 
4035409109809809911021900840538033800000021700A Patel           301527809         TANDRIDGE DISTRICT
4035409109809809911026300261391033800000002500A WANSTALL        1122987           TANDRIDGE COUNCIL 
4035409109809809911026310884760033800000008900N CLARK           301622584         TANDRIDGE DISTRICT
4035409109809809911026300234240033800000022400K Jempson         301025681         TANDRIDGE DISTRICT
4035409109809809911029100601675033800000029600J SHELDON         300745242         TANDRIDGE DISTRICT
4035409109809809911029100994120033800000061400R Quijano-Amigo   7136477           TANDRIDGE DISTRICT
4035409109809809911047300049537033800000013300TAYLOR            301254159         TANDRIDGE D/COUNC 
4035409109809809911047400268466033800000021800I WILLCOCK        30150793X         TANDRIDGE DISTRICT
4035409109809809911063500557062033800000006396R DAVIES          RR000001635D      TANDRIDGE COUNCIL 
4035409109809809911064800068081033800000005000J HARPER          1092428           TANDRIDGE D C     
4035409109809809911142310844660033800000005000S SION            301581345         TANDRIDGE DISTRICT
4035409109809809916001513044972033800000026600MISS ROSEMARY M FR301129712         COUNCIL TAX       
4035409109809809916172512058758033800000003258PILGRIM MRS JC    000015935D        TANDRIDGE DISTRICT
4035409109809809916172512058758033800000000900PILGRIM MRS JC    301503651         TANDRIDGE DIST TAX
4035409109809809916201516509118033800000000509PAULINE MARGARET MTM CLIENT FASTER  TANDRIDGE CIUNCIL 
4035409109809809916201514774876033800000000500LISA SARA KNOWLES RR000009555D      TENDRIDGE DC      
4035409109809809916571053537725033800000033600EAST SURREY DIAL AESDAR9549         TANDRIDGE DC      
4035409109809809916605010270218033800000026000MR NEIL FRANKLIN  301384511         TANDRIDGE DIST CNC
4035409109809809918000203468240033800000029800KNOTT MICHAEL     301469090         TANDRIDGE DISTRICT
4035409109809809920239790772453033800000017700MOORE J           300161257         TANDRIDGE D/C     
4035409109809809920239720638501033800000035500RAWNER A+N        301640837         TANDRIDGE D/C - HO
4035409109809809920239763835030033800000018282MR R J LEE        301128163         TANDRIDGE D/C     
4035409109809809920239780275921033800000002000TULLY PA          RR000009361K      TANDRIDGE DISTRICT
4035409109809809920239740559687033800000054799PACKER MJ         000003572A        TANDRIDGE D/C - HO
4035409109809809920239770118222033800000002900ANDREWS-SPEED S   30030739X         TANDRIDGE DISTRICT
4035409109809809920905660012424033800000011900GODSTONE HOTEL(L  30055489X         TANDRIDGE D/C - HO
4035409109809809920246100824569033800000017700SAVAGE-FULLER E   301572835         TANDRIDGE D/C - HO
4035409109809809920246103846601033800000011700SELDON WESTPFEL   301364867         TANDRIDGE D/C     
4035409109809809920246180155322033800000029600BATKI-BRAUN D+L   300409644         TANDRIDGE DC      
4035409109809809920246103284514033800000005000BRIERE-EDN SJ     301083441         TANDRIDGE         
4035409109809809920246140668257033800000013277THOMPSON+RUNCIM   RR000007520J      TANDRIDGE COUNCIL 
4035409109809809920246140668257033800000003400THOMPSON+RUNCIM   300501055         TANDRIDGE DIST COU
4035409109809809920246193837882033800000004000POND B M          1088636           TANDRIDGE DISTRICT
4035409109809809920246180918679033800000085000BUTLERS CATER LT  7110258           TANDRIDGE D/C - OT
4035409109809809920246103634841033800000017700HARRIS P+D        30124161X         TANDRIDGE D/C     
4035409109809809920246110265209033800000029600COULTHURST JD     301150018         TANDRIDGE D C     
4035409109809809920246470326666033800000008661WELDGABR FH       90008457          TANDRIDGE DISTRICT
4035409109809809920246493324672033800000015800SULKOWSKI L M     301590866         TANDRIDGE D/C     
4035409109809809920246443472183033800000001000BROWN K           1034677           TANDRIDGE DISTRICT
4035409109809809920246470495727033800000011200MCELROY SJ        000016860J        TANDRIDGE D/C - HO
4035409109809809920246440735558033800000001687ZABITGIL M        RR000011909W      TANDRIDGE DISTRICT
4035409109809809920246490946915033800000005000WOOD L S          1094497           TANDRIDGE D/C R DT
4035409109809809920467320508861033800000002000PICKERING SC      301478655         TANDRIDGE D/C - HO
4035409109809809920240500032980033800000038519TRANSFORM HOUSIN  RR000009883N      TANDRIDGE DISTRICT
4035409109809809920217823460924033800000028400FELSTEAD L        301568026         TANDRIDGE D/C     
4035409109809809920906920094137033800000016500CHAMBERLAN NA     301515506         TANDRIDGE D/C     
4035409109809809920716403342352033800000021700FAUR II           301521691         TANDRIDGE D/C     
4035409109809809920414110108189033800000015000ALDHOUSE SKB      301167677         TANDRIDGE D/C     
4035409109809809920701503428095033800000000700WATSON T L        000013315D        TANDRIDGE D/C - H 
4035409109809809920701580369691033800000013300DEAN B            300891312         TANDRDGE COUNT    
4035409109809809920701550183148033800000007500ADAMS AT          1300899           TANDRIDGE DISTRICT
4035409109809809920881350497185033800000018100WALSH AB          301478771         TANDRIDGE DISTRICT
4035409109809809920239750959405033800000009700TAKESHAPE HEALTH  71151933          TANDRIDGE COUNCIL 
4035409109809809920143353591948033800000112697CHARTWELL+NEW LTD 301677283         TANDRIDGE D/C     
4035409109809809920701513855287033800000015200STAN N + STAN M   7301656           TANDRIDGE D/C - OT
4035409109809809920246413466116033800000005000MACKIE D          124052            TANDRIDGE DISTRICY
4035409109809809920701563066991033800000001000ARNELL A          300247053         TANDRIDGE D/C     
4035409109809809920701563066991033800000000800ARNELL A          7109947           TANDRIDGE         
4035409109809809920246150717606033800000029600FILIPPONI F+S     300947725         TANDRIDGE D/C     
4035409109809809920246180854700033800000021700BRYCE C+KEEN S    300867761         TANDRIDGE D/C     
4035409109809809920239750604712033800000031781DAVIS M PERS      301672740         TANDRIDGE D/C     
4035409109809809920701540116521033800000014379PETERS L          301596401         COUNCIL TAX TANDRI
4035409109809809920691550769436033800000012115HANDCOCK KJ + JG  301360177         TANDRIDGE DISTRICT
4035409109809809920239783592421033800000085800HALLETT M+T       77136474          TANDRIDGE DISTRICT
4035409109809809920240060212873033800000014000STREATER J        301443360         TANDRIDGE DC      
4035409109809809920239750167835033800000017900BLACKBURN R+C     300454661         TANDRIDGE D/C     
4035409109809809920701553650952033800000016699AFC LANES         7136327           TANDRIDGE COUNCIL 
4035409109809809920765560516449033800000000420JACKSON MJ        000000170X        TANDRIDGE D/C H R 
4035409109809809920765573671801033800000012000RUSSELL K         2RR000002715D     TANDRIDGE D/C - HO
4035409109809809920765590476838033800000002000PERKINS KL        1061035           TANDRIDGE DISTRIC 
4035409109809809920765523781429033800000000500LEIGH J           301399697         TANDRIDGE D/C - HO
4035409109809809920765563112691033800000011800PAYNE - BEATRICE  300955300         TANDRIDGE D.COUNCI
4035409109809809920710690310867033800000009400ASHMOLE TR        301662627         TANDRIDGE D/C     
4035409109809809920202023726886033800000013000C WILLIAMS        RR000012860J      TANDRIDGE DIST COU
4035409109809809920801450347973033800000018000HALL DAVID S      301543614         TANDRIDGE D/C     
4035409109809809920709453036073033800000005000CUSHING L         1119301           TANDRIDGE D/C - HO
4035409109809809920665190766119033800000021400POVEY T           301446026         TANDRIDGE D / C   
4035409109809809920891643900010033800000022000RICHARDS S J      301330611         TANDRIDGE D/C     
4035409109809809923058016211435033800000000420JANE ROBINSON     000017365R        Tandridge District
4035409109809809923058021231398033800000017800ALAN ALBERT NASH  301407757         Tandridge District
4035409109809809923058011558027033800000003000BRUNILDA KOPLIKU  301551067         Tandridge District
4035409109809809930000400230457033800000040000E Cullen          301428677         TANDRIDGE DISTRICT
4035409109809809930641521102868033800000011700S Joseph          301567147         TANDRIDGE DISTRICT
4035409109809809930845846963468033800000025600M HORTON          301633237         TANDRIDGE DISTRICT
4035409109809809930900910416860033800000030000P Clist           301603253         TANDRIDGE DISTRICT
4035409109809809930903431683660033800000053200PAUL HUNTLEY T/A B73996607          TANDRIDGE RATES   
4035409109809809930904918765960033800000004544S GODBOLD         000014147U        TANDRIDGE DIST COU
4035409109809809930917201746431033800000066200J Starkey         7136562           TANDRIDGE DISTRICT
4035409109809809930917217655768033800000019700A LACH            301272054         TANDRIDGE DISTRICT
4035409109809809930917200830641033800000018862P Edwards         301678538         TANDRIDGE DISTRICT
4035409109809809930917200117015033800000030900G DEELEY          301656908         TANDRIDGE DISTRICT
4035409109809809930917225138160033800000002500LEWIS E.          301031195         TANDRIDGE DISTRICT
4035409109809809930917210934060033800000001000K SMITH           1039229           TANDRIDGE DC      
4035409109809809930917200699685033800000013500S Collins         HSG 000012741K    TANDRIDGE DISTRICT
4035409109809809930917224983068033800000010728FISHER N.         RR000016777F      TRANDRIDGE DISTRIC
4035409109809809930917231735968033800000002000L PACKMAN         1066179           TANDRIDGE COUNCIL 
4035409109809809930917201629060033800000003747C WARREN          RR000003431Y      TANDRIDGE D C     
4035409109809809930917200870724033800000017900A Pedrick         301317188         TANDRIDGE DISTRICT
4035409109809809930917238946860033800000013400L SLIM            300865232         TANDRIDGE DISTRICT
4035409109809809930917241507968033800000001500M DRISCOLL        6 BRIAR CR69PF    TRANDRIDGE COUNCIL
4035409109809809930917200963323033800000015900N Howard          301629448         TANDRIDGE DISTRICT
4035409109809809930917222065768033800000003500D Norton          300696615         TANDRIDGE DISTRICT
4035409109809809930917245703160033800000009148BIGNALL R         RR000008838G      TANDRIDGE DC GEN  
4035409109809809930917231735968033800000003500L PACKMAN         301010758         TANDRIDGE COUNCIL 
4035409109809809930917243452768033800000015100J CLAYTON         301664996         TANDRIDGE DISTRICT
4035409109809809930917246517260033800000015700T Hamad Amin      30164415X         TANDRIDGE DISTRICT
4035409109809809930923800060150033800000013800S C               300220794         TANDRIDGE DISTRICT
4035409109809809930924515208660033800000020500B COURTNEY-BENNETT30109047X         TANDRIDGE COUNCIL 
4035409109809809930929200699059033800000017900S JOHNSON         300017885         TANDRIDGE D C     
4035409109809809930929211808860033800000005267B CHILCOTT        000002287U        TANDRIDGE DC      
4035409109809809930929201048795033800000016200C SIDDALL         30107909X         TANDRIDGE C/TAX   
4035409109809809930929226562468033800000011900C Hrachovec       301518262         TANDRIDGE DISTRICT
4035409109809809930929217026068033800000001500M CHAMBERLAIN     1032080           TUNBRIDGE COUNCIL 
4035409109809809930943112038068033800000021600P ROBERTS         301613751         TANDRIDGE COUNCIL 
4035409109809809930943815219668033800000002400D GALLOWAY        30124417X         TANDRIDGE DISTRICT
4035409109809809930943815219668033800000014085D GALLOWAY        RR000013798G      TANDRIDGE D C     
4035409109809809930943801808856033800000000329SURREY & BORDERS P000016141K        TANDRIDGE DISTRICT
4035409109809809930943800451016033800000026100L Redgrove        300865733         TANDRIDGE C/TAX   
4035409109809809930943830978960033800000002500C Easton          1058763           TANDRIDGE DISTRICT
4035409109809809930944101515649033800000002000K EVANS           301614828         TANDRIDGE DISTRICT
4035409109809809930944222104063033800000018600R EDMOND          301661523         TANDRIDGE DISTRICT
4035409109809809930949000033833033800000010836L MCCORMACK       301463006         TANDRIDGE DISTRICT
4035409109809809930976630289860033800000002000A BLACKLOCK       123145            TANDRIDGE DISTRICT
4035409109809809930987700736239033800000017800J Yusuf-Osman     300044423         TANDRIDGE C/TAX   
4035409109809809940010010093343033800000012500MCCLEAN J&P       RR000003780J      TANDRIDGE DC GEN  
4035409109809809940020024580532033800000021700Angell A & E      301539271         TANDRIDGE CTAX    
4035409109809809940024432306506033800000035500NIVEN K & A       301484561         TANDRIDGE CTAX    
4035409109809809940030041601385033800000037000MARR              301671585         TANDRIDGE CTAX    
4035409109809809940100090737917033800000005679REEVES M          16880J            TANDRIDGE DC GEN  
4035409109809809940100060198439033800000021800DRAKE&KELLAW      301575386         TANDRIDGE CTAX    
4035409109809809940150594900677033800000086600WYNNE MB & S      301665454         TANDRIDGE CTAX    
4035409109809809940162851032615033800000001274FARRINGTON W      RR000013472A      TANDRIDGE DC GEN  
4035409109809809940173991039105033800000025600LOVICK KL         301121595         TANDRIDGE CTAX    
4035409109809809940184112525682033800000003840Dontipsai S       1146329           TANDRIDGE CTAX    
4035409109809809940184171356011033800000016300WALSH LA          301254945         TANDRIDGE CTAX    
4035409109809809940200941490664033800000000329Pannell M A       000002877F        TANDRIDGE DC GEN  
4035409109809809940354001395998033800000018000Ford L M          000012720J        TANDRIDGE DC GEN  
4035409109809809940354031406450033800000015500ERASMUS D         301487817         TANDRIDGE DC GEN  
4035409109809809940354011407031033800000000373FARRELL K         RR000004608V      TANDRIDGE DC GEN  
4035409109809809940354001373862033800009000000TANDRIDGE TST LEIS                  TANDRIDGE DISTRICT
4035409109809809940354081471651033800000029600HolfordG&M        301470885         TANDRIDGE DC GEN  
4035409109809809940354091431943033800000029600Gerrard&Osbo      300199501OSBORN   TANDRIDGE DC GEN  
4035409109809809940354021428845033800000000420HART F            000016573B        TANDRIDGE DC GEN  
4035409109809809940354011407031033800000001220FARRELL K         RR 000017076E     TANDRIDGE DC GEN  
4035409109809809940372961392573033800000015800KNOTT T J         301448644         TANDRIDGE DC GEN  
4035409109809809940372981152742033800000016600PETERS J R        301610399         TANDRIDGE CTAX    
4035409109809809940434491490184033800000015800GOLSBY C          COUNCIL TAX       TANDRIDGE DC GEN  
40354091098098099404415314557960338000000190002 P INVES         301617771         TANDRIDGE CTAX    
4035409109809809940462001037625033800000006396HOLBROOK P J      RR000011850X      TANDRIDGE DC GEN  
4035409109809809940475984437489033800000021700FREEMANTLE ND     301263713         TANDRIDGE CTAX    
4035409109809809940477540853399033800000010000MERRITT JJ&J      300813594         TANDRIDGE CTAX    
4035409109809809940477572523191033800000021700HARVEY PW         301498640         TANDRIDGE CTAX    
4035409109809809940477501768859033800000022300EARLS MA          301508597         TANDRIDGE CTAX    
4035409109809809940478241336940033800000009399MIDGLEY PC        RR000014575D      TANDRIDGE DC GEN  
4035409109809809940478241336940033800000002000MIDGLEY PC        1134137           TANDRIDGE DC GEN  
4035409109809809940478312130602033800000026000GAY A&NJ          300019287         TANDRIDGE DC GEN  
4035409109809809950000003058255033800000029257BOXALL BJ         301567174         TANDRIDGE DC      
4035409109809809952411260639253033800000000400STANDLEY K C      RR000015993B      TANDRIDGE DISTRICT
4035409109809809954300699694387033800000002000SEWELL H L        1125544           TANDRIDGE DIST CNC
4035409109809809954303639035301033800000014000WHATSLEY DRJ/ADGD 301432401         TANDRIDGE DIST CNC
4035409109809809954303639116255033800000002050MISS LACE M MEYERSRR000016804P      TANDRIDGE DC      
4035409109809809954303639194000033800000077763THE OUTWOOD DOG AN301668657         TANDRIDGE DIST CNC
4035409109809809955703002428903033800000012333BALDOCK A H & M   EE000006382M      TANDRIDGE DISTRICT
4035409109809809955703088214141033800000017800COOPER A & G      300385682         TANDRIDGE DIST CNC
4035409109809809955703035745347033800000005288SHAW N M          000006697F        TDC               
4035409109809809955703079010792033800000015000HERSHEL-JONES     301656372         TANDRIDGE DIST CNC
4035409109809809955703035901934033800000005288SHAW N M & D W    000000290X        TDC               
4035409109809809955703079048714033800000007912MISS DOROTHY RELYERR000005220J      TANDRIDGE DISTRICT
4035409109809809960032577193490033800000023500SALTER K   D      301587713         TANDRIDGE DIST CNC
4035409109809809960043511054646033800000015000MISS FIONA M THORB300998638         COUNCIL TAX       
4035409109809809960043511093730033800000000870MR GARY J LLOYD   RR000014375D      TANRIDGE COUNCIL  
4035409109809809960043511184698033800000000727MISS REBECCA PETTERR000014631YRENT  TANDRIDGE DC      
4035409109809809960043511063610033800000021700BOTTLE C&S/ADV G  301116835         TANDRIDGE DIST CNC
4035409109809809960043511193514033800000003285COOPER M          RR000013446T      TANDRIDGE DISTRICT
4035409109809809960043511052910033800000009900SMITH AJ          300685407         TANDRIDGE DIST CNC
4035409109809809960043511163038033800000012749PROCTOR RJ        R000007406T       TANDRIDGE DISTRICT
4035409109809809960043511151390033800000003000WILLIAMS BD       RR000013324P      TANDRIDGE COUNCIL 
4035409109809809960043511101040033800000001500BROCKBANK M & C   HOUSING BENEFIT   TANDRIDGE COUNCIL 
4035409109809809960043511176970033800000014699PATEL N & S       301448493         TANDRIDGE DIST CNC
4035409109809809960043614601753033800000004599MAYO EF           30154114X         TANDRIDGE DIST CNC
4035409109809809960061430135672033800000017800FRASER D          301570656         TANDRIDGE DC      
4035409109809809960062060587865033800000017800P&B LETT & MAN LTDP&B LETT & MAN LTDTANDRIDGE DISTRICT
4035409109809809960062060587865033800000018000P&B LETT & MAN LTDP&B LETT & MAN LTDTANDRIDGE DISTRICT
4035409109809809960062060587865033800000016400P&B LETT & MAN LTDP&B LETT & MAN LTDTANDRIDGE DISTRICT
4035409109809809960063334318704033800000000453DAVEY S           000016469W        TANDRIDGE DIST CNC
4035409109809809960114124575607033800000001000TORY P            1033348           TANDRIDGE DISTRICT
4035409109809809960130942367905033800000014000MCGUINNESS J & J  RR000007139H      TANDRIDGE DISTRICT
4035409109809809960160975503328033800000012471BEHAGG J          RR000012416E      TANDRIDGE DISTRICT
4035409109809809960160975613638033800000000703ROOTS LM                            TANDRIDGE DIST    
4035409109809809960160975605198033800000000373MR ANTHONY P SIBTHRR000001587U      TDC               
4035409109809809960160962674064033800000029500WEST PE & JA      30046970X         TANDRIDGE DISTRICT
4035409109809809960160971602178033800000050600CHAMBERS C E      RR000002692W      TANDRIDGE DIST CNC
4035409109809809960160971603107033800000017600SMITH ST          301203228         TANDRIDGE DISTRICT
4035409109809809960172154004594033800000016200SHARIFF S J       30132650X         TANDRIDGE DIST CNC
4035409109809809960173103295990033800000026000DEVERE DAL        301475621         TANDRIDGE DIST CNC
4035409109809809960173181428731033800000017700CIOBANU S & I     30161089X         TANDRIDGE DIST CNC
4035409109809809960222825186639033800000025700WEBBER PW & DJ    301134427         TANDRIDGE DIST CNC
4035409109809809960232279156789033800000017700FINCH J & COOPER  301378033         TANDRIDGE COUNCIL 
4035409109809809960240745006504033800000011900PURMETT INTERIOR  301423894         TANDRIDGE COUNCIL 
4035409109809809960247717659450033800000019657M & S FOSTER PROPE301618122         TANDRIDGE DISTRICT
4035409109809809960247717659450033800000022200M & S FOSTER PROPE301457735         TANDRIDGE DISTRICT
4035409109809809960920491360586033800000000372MRS GE WHITTLE    RR000007572A      TANDRIDGE D C     
4035409109809809977300115146068033800000013800G Bill            301249794         TANDRIDGE D C     
4035409109809809977300589057168033800000000305M BROCKBANK       RR000016027U      TANDRIDGE D C     
4035409109809809977301783065660033800000014100C JARRETT         300076426X        TDC               
4035409109809809977302183761260033800000017800P O'Hara          300243730         TANDRIDGE DISTRICT
4035409109809809977404236857360033800000017900D BUTCHER         301516127         TANDRIDGE DISTRICT
4035409109809809977632963088368033800000000500A LILLYWHITE      1070644           TANDRIDGE D C     
4035409109809809977687402214668033800000010300C BENNETT         301424586         COUNCIL SHIT CUNTS
4035409109809809977687403223168033800000017700W DUFFY           300299210         TANDRIDGE DISTRICT
4035409109809809977713301770768033800000001678EDWARD MILLER     RR000007737F      .                 
4035409109809809977857233519160033800000025500J Johnson         301296239         TANDRIDGE DISTRICT
4035409109809809977916600942560033800000020600S SMITH           301554671         TANDRIDGE DISTRICT
EOF1A400000S         71096700010001000100 17338 20243 000000                                        
EOF2F0000000100                                   00                                                
UTL10000000000000000001313323500000000000267                                                        
