VOL1710967                                                                                          
HDR1A400000S         71096700010001000100 17319 20224 000000                                        
HDR2F0000000100                                   00                                                
UHL1 17319710967    0000000011DAILY  001            SYNDC           DISK 000                        
4035409109809809905015055243995031900000010000LORETTA CLARK     301221375         TANDRIDGE DISTRICT
4035409109809809905015055243995031900000010000MISS L CLARK      000013625R        TANDRIDGE DISTRICT
4035409109809809905046917240116031900000008660                  301554528         Tandridge District
4035409109809809907011632123243031900000000500Anderson Sarah    0000016579H       TANDRIDGE COUNCIL 
4035409109809809907011635075007031900000010400Moran Sarah       301567479         TANDRIDGE DISTRICT
4035409109809809907011641700827031900000000500Moore Clive       097000330         TANDRIDGE DISTRICT
4035409109809809907011643517300031900000001007Mills Christopher 092170467CP2292   TANDRIDGE DISTRICT
4035409109809809907011608287552031900000023400Miles Christina   300789252         TANDRIDGE DISTRICT
4035409109809809907024623988197031900000030000Hill Kirsty       RR000014516E      TDC               
4035409109809809908928606055800031900000000500MR SHARP          097000330         TANDRIDGE DC      
4035409109809809909012625536060031900000012894RAFAEL FRANCIS    000006071Y        RENT              
4035409109809809909012679546789031900000015000DAVID WILLIAMS    300780315         Tandridge DC-CTa  
4035409109809809909012679546789031900000036000DAVID WILLIAMS    RR000010053B      TDC-Rent          
4035409109809809909012648671119031900000004320GAVIN TAGG        092170467 CP 2400 Tandridge DC      
4035409109809809909012746186373031900000000400CHERYL PALMER     RR000014483N      TANDRIDGE DISTRICT
4035409109809809909012881179931031900000009830ROY SAVERY        SAVERY 092170467 CTANDRIDGE DISTRICT
4035409109809809909012857063288031900000006000DUNCAN GORDON     301599613         Tandridge Counci  
4035409109809809909012829306588031900000017800DONNA DAVIES      301294710         Tandridge DC      
4035409109809809909012851605480031900000004917PATRICK DALY      123301            TANDRIDGE DIST C  
4035409109809809909013376251808031900000012402MURIEL HAZELDEN   RR000005099H      TANDRIDGE DIST CCL
4035409109809809909013519773608031900000001794NICHOLAS TEAL     MI 04679217 CP187                   
4035409109809809909013511063180031900000003239NEIL SMITH        MI 04679217 CP1545TANDRIDGE DISTRICT
4035409109809809909013960026585031900000002000MARY SMITH        RR000015653B      TANDRIDGE DISTRICT
4035409109809809911021301229968031900000148100                  FRM 11021301229968                  
4035409109809809911021301047584031900000017700C MITCHELL        301444099         TANDRIDGE DISTRICT
4035409109809809911021600694532031900000005000A McKenzie        985895            TANDRIDGE DISTRICT
4035409109809809911022100120754031900000053120J GADEN           RR000010095D      TANDRIDGE COUNCIL 
4035409109809809911026300095377031900000011785RILEY             MI 04679217 CP1042TANDRIDGE DISTRICT
4035409109809809911026300364187031900000001000D FLOYD           1054097           TANDRIDGE COUNCIL 
4035409109809809911026300235767031900000004088STEWART           MI04679217 CP 1588TANDRIDGE DC      
4035409109809809911026300302674031900000010350S PAGET           RR000010541K      TANDRIDGE DISTRICT
4035409109809809911063500706396031900000006700P Skarbek-Wazynski7132720           TANDRIDGE DISTRICT
4035409109809809911063500714259031900000002500HEAVENS           RR000012329W      TANDRIDGE DISTRICT
4035409109809809911063500792107031900000002000J NORRIS          1121328           TANDRIDGE DISTRICT
4035409109809809911063500660262031900000004500S Brennan         300670930         TANDRIDGE DISTRICT
4035409109809809911063500660262031900000013000S Brennan         000008014C        TANDRIDGE DISTRICT
4035409109809809918000205447712031900000001076STILGOE SIR RICHAR092170467 CP1819  TANDRIDGE DISTRICT
4035409109809809920454583353508031900000008000SHAHE CATER LTD   74004938          TANDRIDGE D/C - HO
4035409109809809920811813293319031900000180000NORTH D SPEC REF  092170467CP3031   TANDRIDGE         
4035409109809809920765553796396031900000005000DEAN R P          000015032A        TANDRIDGE D/C - HO
4035409109809809920765580805947031900000006308SLATFORD YH       092170467 CP965   TANDRIDGE DC      
4035409109809809920765560674834031900000003480OLIVER J E        092170467 CP 1033 TANDRIDGE COUNCIL 
4035409109809809920765553970884031900000056500JUPP S            RR000007290X      TANDRIDGE COUNCIL 
4035409109809809920765510001732031900000004175BOWER JR+CM 1     092170467CP2062   TANDRIDGE DISTRICT
4035409109809809920765530739154031900000018924RAY ER            092170467CP1061   TANDRIDGE DIST COU
4035409109809809920239743144925031900000003000STEEDON C         300597231         TANDRIDGE D/C - HO
4035409109809809920239790869317031900000004275THOMAS RH+JR      MI04679217CP1811  TANDRIDGE DC      
4035409109809809920240000266906031900000065000ASHTON-JON P      RR000013113B      TANDRIDGE D/C - HO
4035409109809809920246113307115031900000001000SANDFORD E        000015618G        TANDRIDGE D/C - HO
4035409109809809920246190176052031900000002000HAYLES D          301278404         TANDRIDGE D/C - HO
4035409109809809920246460321974031900000005600CHRISTIAN CARS L  092170467 CP 2496 TANDRIDGE DISTRICT
4035409109809809920841710263354031900000006295COACH HSE (WOLD)  MI04679217CP1138  TANDRIDGE DC      
4035409109809809920841710263354031900000002360COACH HSE (WOLD)  092170467CP 1138  TANDRIDGE DISTRIC 
4035409109809809920143300549312031900000000500PYE AM            1041275           TANDRIDGE DISTRIC 
4035409109809809920217890704113031900000020000GRIFFIN S L       300338673         TANDRIDGE D/C - HO
4035409109809809920136740012289031900000003600EDWARDS MA+JR     MI 04679217 CP2256TANDRIDGE D C     
4035409109809809920239883319121031900000004000PUDDY M M         000010782M        TANDRIDGE D/C - HO
4035409109809809920246170440981031900000050000THE WHITE BEAR    7112562X          TANDRIDGE DC      
4035409109809809920246180912573031900000008400WALKER AB         7136255           TANDRIDGE COUNCIL 
4035409109809809920246180912573031900000010500WALKER AB         7136314           TANDRIDGE COUNCIL 
4035409109809809920239863601951031900000050000COLLETT S J       000015393B        TANDRIDGE D/C - HO
4035409109809809920765520770086031900000061700RBL OX+DIST CLUB  301081718         TANDRIDGE DIST COU
4035409109809809920240093541223031900000000484THOMAS F          300764493         COUNCIL TAX       
4035409109809809920218053868265031900000008299PEREIRA DA SILVA  30166349X         TANDRIDGE D/C     
4035409109809809930000400355853031900000000867P Lunn            301393970         TANDRIDGE DISTRICT
4035409109809809930182501094378031900000001488HG MA MICHELL 2L3HMI 04679217 CP2045TANDRIDGE D/C     
4035409109809809930258002913429031900000004000BREEN C 8K6 F     956840            TANDRIDGE DISTRICT
4035409109809809930913500500804031900000011809BARKER L 11Z F    MI 04679217 CP 238TANDRIGE DISTRICT 
4035409109809809930913500438335031900000099836BAXTER PHILIPS LTD74006204 Zimm     Tandridge Dist    
4035409109809809930917243271860031900000003640COLLINS S.        000016695D        TANDRIDGE DISTRICT
4035409109809809930917203116753031900000010000FLOWER FARM SHOP  71157079          TANDRIDGE DISTRICT
4035409109809809930917201413238031900000024271L EDWARDS         RR000003092A      TANDRIDGE D C     
4035409109809809930917200082661031900000005555CRAIGMYLE GLEBE LTMI 04679217 CP 225TANDRIDGE D C     
4035409109809809930917233249068031900000006000C BRUCE           301315267         TANDRIDGE COUNCIL 
4035409109809809930917200017002031900000006134POTTER A .        924/092170467 CP  TANDRIDGE DISTRICT
4035409109809809930917236710560031900000005000D Stone           301363567         TANDRIDGE DISTRICT
4035409109809809930917236710560031900000005000D Stone           1067110           TANDRIDGE DISTRICT
4035409109809809930924549327068031900000011800A GAYLE           301601388         TANDRIDGE         
4035409109809809930929213591668031900000000658TURNER G.         RR000016215D      TANDRIDGE DISTRCIT
4035409109809809930929201331004031900000013492K STAFF           092170467 CP 1802 TANDRIDGE D C     
4035409109809809930938400191472031900000003420MARRYAT MS        MI04679217CP2126  TANDRIDGE COUNCIL 
4035409109809809930943801185204031900000001970JONES  R & P      092170467CP1754   TANDRIDGE D C     
4035409109809809930943802856587031900000067000Storage Today Limi73945946          TANDRIDGE DISTRICT
4035409109809809930949200771678031900000001636E LUCK            MI 04679217 CP 763TANDRIDGE DC      
4035409109809809930963101562013031900000000882DOLLMAN J 8SP F   MI 04679217 CP611 TANDRIDGE DISTRICT
4035409109809809930963101562013031900000000989DOLLMAN J.        092170467 CP611   TANDRIDGE DISTRICT
4035409109809809930986301085786031900000031700SURREY ASSEMBLY.  MI 092170467/879  TANDRIDGE DISTRICT
4035409109809809940020001345974031900000012872MORRIS MISS       RR000014796E      TANDRIDGE DC GEN  
4035409109809809940041201105299031900000020144Garner S          300187746         TANDRIDGE CTAX    
4035409109809809940162841116932031900000008885HILL LESLIE       MI 04679217CP580  TANDRIDGE DC GEN  
4035409109809809940170750785415031900000001978STAIT P           MI04679217CP177   TANDRIDGE DC GEN  
4035409109809809940170761093908031900000052338Griffin S         000015012A        TANDRIDGE DC GEN  
4035409109809809940183061156101031900000021700GODFREY DJ        300557466         TANDRIDGE CTAX    
4035409109809809940200612214393031900000179134             BCA  301678930         TANDRIDGE CTAX    
4035409109809809940200931128183031900000003566PRIESTLEY CA      092170467 CP2049  TANDRIDGE DC GEN  
4035409109809809940231331341480031900000002000JOSLIN C CAA      966597            TANDRIDGE DC GEN  
4035409109809809940353031631810031900000018000FRANKLIN R&D      300742943         TANDRIDGE DC GEN  
4035409109809809940353031631810031900000015000FRANKLIN R&D      RR000005302M      TANDRIDGE DC GEN  
4035409109809809940354081498746031900000017800JONES KA          300917750         TANDRIDGE CTAX    
4035409109809809940380831215965031900000009300CARTER NJ         301412962         TANDRIDGE DC GEN  
4035409109809809940403011600648031900000013700FROST M J         301632788         TANDRIDGE CTAX    
4035409109809809940452471187554031900000000933MCSHEEN J         ML 04679217CP 779 TANDRIDGE DC GEN  
4035409109809809940462071062271031900000010897LUDLOW M & M      092170467 CP 790  TANDRIDGE DC GEN  
4035409109809809940475920806706031900000005000DENNIE S          301545197         TANDRIDGE CTAX    
4035409109809809940475920806706031900000020000DENNIE S          301545197         TANDRIDGE CTAX    
4035409109809809940477722181916031900000021900EASTWOOD KAKR&KA  300996172         TANDRIDGE CTAX    
4035409109809809940478132182734031900000021500KILLMISTER OP     301660591         TANDRIDGE CTAX    
4035409109809809940478311807838031900000008891GUMMER PC         092170467CP865    TANDRIDGE DC GEN  
4035409109809809950000095467246031900000003500HICKSON CJ&SW     MI04679217CP1272  TANDRIDGE DC      
4035409109809809951500206106226031900000000515GORDON CML & DAVEYCP1673MI04679217  TANDRIDGE DISTRICT
4035409109809809955703002405857031900000013988FARLEIGH ROVERS FOMI 04679217CP1076 TANDRIDGE DIST COU
4035409109809809955703079089550031900000025000NOCERA SR         000016954C        TANDRIDGE DIST CNC
4035409109809809956003305329124031900000010275MRS MARILYN J MULL092170467 CP2542  TANDRIDGE D C     
4035409109809809956003301256610031900000005958THURBIN C M       092170467 CP 1608 TANDRIDGE DC      
4035409109809809960010433838151031900000005000GOWER L           00013423N         TANDRIDGE COUNCIL 
4035409109809809960043553162811031900000001237KENNING ID & SA   092170467 CP 2006 TANDRIDGE DISTRICT
4035409109809809960043511025980031900000002000MRS LENNIE MPOFU  1093951           TANDRIDGE DC      
4035409109809809960070203733718031900000005080ESTORFFE C A      092170467 CP 1032 TANDRIDGE D C     
4035409109809809960071742674328031900000001000MRS DAWN B BORE   1065947           TANDRIDGE DC      
4035409109809809960071796737662031900000010000MR ROBERT BANNISTE73951128          TANDRIDGE DC      
4035409109809809960091536201367031900000013525HODD NFB & RM ZZ  092170467 CP 849 HTANRIDGE DISTRICT 
4035409109809809960144174505912031900000021600CARTWRIGHT A      301624905         TANDRIDGE DIST CNC
4035409109809809960160971554777031900000002000CRACKNELL I C PBM MI 04679217 CP779 TANDRIDGE D C     
4035409109809809960160975637561031900000001000MISS COLLETTE L HE1039863           TANDRIDGE DC      
4035409109809809960160975647303031900000066000COGHLAN MP        RR000016492A      TANDRIDGE DISTRICT
4035409109809809960160975577607031900000002000CHATT CL          1011030           TANDRIDGE D C     
4035409109809809960172789600983031900000021700HODGKINSON JH     301472625         TANDRIDGE COUNCIL 
4035409109809809960184280426328031900000005250PHILLIMORE R      092170467 CP60    TANDRIDGE DISTRICT
4035409109809809960193430548446031900000002000TIDBALL JG        30164178X         TANDRIDGE DIST CNC
4035409109809809960232244567405031900000000989TAYLOR  RJ&KF     MI 04679217CP611  TANDRIDGE COUNCIL 
4035409109809809960247720180810031900000090800HENRY'S PLAY CAFE 73983944          TANDRIDGE DIST CNC
4035409109809809960604048174947031900000004696FRAKIEWICZ PH     092170467 CP292   TANDRIDGE DC      
4035409109809809977302809384160031900000002000M GRAHAM          1095739           TANDRIDGE COUNCIL 
4035409109809809977631804470160031900000003721HOPKINS E S94 1   092170467 CP1545  TANBRIDGE DIS COUN
4035409109809809977687401747760031900000004000A Thompson        1128981           TANDRIDGE DISTRICT
4035409109809809977914164259760031900000003100M SCOTT           301476690         TANDRIDGE DISTRICT
4035409109809809983221000653603031900000014200DAVIES NJ         301555120         TANDRIDGE COUNCIL 
EOF1A400000S         71096700010001000100 17319 20224 000000                                        
EOF2F0000000100                                   00                                                
UTL10000000000000000000221670100000000000137                                                        
