VOL14369580                              400000                                1                          
HDR1A436958Z         43695800010001000100 17332 19332 000000 HO.EXPRESS                                   
HDR2F0190800106                                   00                                                      
UHL1 17332436958    00000000         001              171128 HO.EXPRESS                                   
EOF1A436958Z         43695800010001000100 17332 19332 000018 HO.EXPRESS                                   
EOF2F0190800106                                   00                                                      
UTL10000000000000000000000000000000000000000                 HO.EXPRESS                                   
