VOL14380660                              400000                                1                          
HDR1A438066Z         43806600010001000100 17319 19319 000000 HO.EXPRESS                                   
HDR2F0190800106                                   00                                                      
UHL1 17319438066    00000000         001              171115 HO.EXPRESS                                   
EOF1A438066Z         43806600010001000100 17319 19319 000018 HO.EXPRESS                                   
EOF2F0190800106                                   00                                                      
UTL10000000000000000000000000000000000000000                 HO.EXPRESS                                   
