VOL14380660                              400000                                1                          
HDR1A438066Z         43806600010001000100 17326 19326 000000 H.O.COLL                                     
HDR2F0190800106                                   00                                                      
UHL1 17326438066    00000000         001              171122 H.O.COLL                                     
EOF1A438066Z         43806600010001000100 17326 19326 000018 H.O.COLL                                     
EOF2F0190800106                                   00                                                      
UTL10000000000000000000000000000000000000000                 H.O.COLL                                     
