VOL14369580                              400000                                1                          
HDR1A436958Z         43695800010001000100 17321 19321 000000 HO.EXPRESS                                   
HDR2F0190800106                                   00                                                      
UHL1 17321436958    00000000         001              171117 HO.EXPRESS                                   
EOF1A436958Z         43695800010001000100 17321 19321 000018 HO.EXPRESS                                   
EOF2F0190800106                                   00                                                      
UTL10000000000000000000000000000000000000000                 HO.EXPRESS                                   
