VOL1810967                                                                                          
HDR1A400000S         81096700010001000100 17324 20228 000000                                        
HDR2F0000000100                                   00                                                
UHL1 17324000967    0000000011DAILY  001            SYNDC           DISK 000                        
EOF1A400000S         81096700010001000100 17324 20228 000000                                        
EOF2F0000000100                                   00                                                
UTL10000000000000000000000000000000000000000                                                        
